^C:\USERS\XY6549JI\SOURCE\REPOS\YPFB\YPFB\X64\DEBUG\DETAIL.OBJ|C:\USERS\XY6549JI\SOURCE\REPOS\YPFB\YPFB\X64\DEBUG\DETAIL_CONFIRM.OBJ|C:\USERS\XY6549JI\SOURCE\REPOS\YPFB\YPFB\X64\DEBUG\DETAIL_SUMMARY.OBJ|C:\USERS\XY6549JI\SOURCE\REPOS\YPFB\YPFB\X64\DEBUG\DO_CLICK.OBJ|C:\USERS\XY6549JI\SOURCE\REPOS\YPFB\YPFB\X64\DEBUG\END.OBJ|C:\USERS\XY6549JI\SOURCE\REPOS\YPFB\YPFB\X64\DEBUG\FIND.OBJ|C:\USERS\XY6549JI\SOURCE\REPOS\YPFB\YPFB\X64\DEBUG\FOUND.OBJ|C:\USERS\XY6549JI\SOURCE\REPOS\YPFB\YPFB\X64\DEBUG\HOME.OBJ|C:\USERS\XY6549JI\SOURCE\REPOS\YPFB\YPFB\X64\DEBUG\INSERT_TEXT.OBJ|C:\USERS\XY6549JI\SOURCE\REPOS\YPFB\YPFB\X64\DEBUG\LOGIN.OBJ|C:\USERS\XY6549JI\SOURCE\REPOS\YPFB\YPFB\X64\DEBUG\SLEEP.OBJ|C:\USERS\XY6549JI\SOURCE\REPOS\YPFB\YPFB\X64\DEBUG\YPFB.OBJ
C:\USERS\XY6549JI\SOURCE\REPOS\YPFB\X64\DEBUG\YPFB.ILK
C:\USERS\XY6549JI\SOURCE\REPOS\YPFB\X64\DEBUG\YPFB.EXE
C:\USERS\XY6549JI\SOURCE\REPOS\YPFB\X64\DEBUG\YPFB.PDB
