^C:\Users\xy6549ji\source\repos\YPFB\YPFB\YPFB.vcxproj
C:\Users\xy6549ji\source\repos\YPFB\Release\YPFB.ipdb
C:\Users\xy6549ji\source\repos\YPFB\Release\YPFB.iobj
^C:\Users\xy6549ji\source\repos\YPFB\YPFB\YPFB.vcxproj
C:\Users\xy6549ji\source\repos\YPFB\Release\YPFB.ipdb
C:\Users\xy6549ji\source\repos\YPFB\Release\YPFB.iobj
^C:\Users\xy6549ji\source\repos\YPFB\YPFB\YPFB.vcxproj
C:\Users\xy6549ji\source\repos\YPFB\Release\YPFB.ipdb
C:\Users\xy6549ji\source\repos\YPFB\Release\YPFB.iobj
^C:\Users\xy6549ji\source\repos\YPFB\YPFB\YPFB.vcxproj
C:\Users\xy6549ji\source\repos\YPFB\Release\YPFB.ipdb
C:\Users\xy6549ji\source\repos\YPFB\Release\YPFB.iobj
^C:\Users\xy6549ji\source\repos\YPFB\YPFB\YPFB.vcxproj
C:\Users\xy6549ji\source\repos\YPFB\Release\YPFB.ipdb
C:\Users\xy6549ji\source\repos\YPFB\Release\YPFB.iobj
^C:\Users\xy6549ji\source\repos\YPFB\YPFB\YPFB.vcxproj
C:\Users\xy6549ji\source\repos\YPFB\Release\YPFB.ipdb
C:\Users\xy6549ji\source\repos\YPFB\Release\YPFB.iobj
^C:\Users\xy6549ji\source\repos\YPFB\YPFB\YPFB.vcxproj
C:\Users\xy6549ji\source\repos\YPFB\Release\YPFB.ipdb
C:\Users\xy6549ji\source\repos\YPFB\Release\YPFB.iobj
^C:\Users\xy6549ji\source\repos\YPFB\YPFB\YPFB.vcxproj
C:\Users\xy6549ji\source\repos\YPFB\Release\YPFB.ipdb
C:\Users\xy6549ji\source\repos\YPFB\Release\YPFB.iobj
^C:\Users\xy6549ji\source\repos\YPFB\YPFB\YPFB.vcxproj
C:\Users\xy6549ji\source\repos\YPFB\Release\YPFB.ipdb
C:\Users\xy6549ji\source\repos\YPFB\Release\YPFB.iobj
^C:\Users\xy6549ji\source\repos\YPFB\YPFB\YPFB.vcxproj
C:\Users\xy6549ji\source\repos\YPFB\Release\YPFB.ipdb
C:\Users\xy6549ji\source\repos\YPFB\Release\YPFB.iobj
^C:\Users\xy6549ji\source\repos\YPFB\YPFB\YPFB.vcxproj
C:\Users\xy6549ji\source\repos\YPFB\Release\YPFB.ipdb
C:\Users\xy6549ji\source\repos\YPFB\Release\YPFB.iobj
^C:\Users\xy6549ji\source\repos\YPFB\YPFB\YPFB.vcxproj
C:\Users\xy6549ji\source\repos\YPFB\Release\YPFB.ipdb
C:\Users\xy6549ji\source\repos\YPFB\Release\YPFB.iobj
^C:\Users\xy6549ji\source\repos\YPFB\YPFB\YPFB.vcxproj
C:\Users\xy6549ji\source\repos\YPFB\Release\YPFB.ipdb
C:\Users\xy6549ji\source\repos\YPFB\Release\YPFB.iobj
^C:\Users\xy6549ji\source\repos\YPFB\YPFB\YPFB.vcxproj
C:\Users\xy6549ji\source\repos\YPFB\Release\YPFB.ipdb
C:\Users\xy6549ji\source\repos\YPFB\Release\YPFB.iobj
^C:\Users\xy6549ji\source\repos\YPFB\YPFB\YPFB.vcxproj
C:\Users\xy6549ji\source\repos\YPFB\Release\YPFB.ipdb
C:\Users\xy6549ji\source\repos\YPFB\Release\YPFB.iobj
^C:\Users\xy6549ji\source\repos\YPFB\YPFB\YPFB.vcxproj
C:\Users\xy6549ji\source\repos\YPFB\Release\YPFB.ipdb
C:\Users\xy6549ji\source\repos\YPFB\Release\YPFB.iobj
^C:\Users\xy6549ji\source\repos\YPFB\YPFB\YPFB.vcxproj
C:\Users\xy6549ji\source\repos\YPFB\Release\YPFB.ipdb
C:\Users\xy6549ji\source\repos\YPFB\Release\YPFB.iobj
^C:\Users\xy6549ji\source\repos\YPFB\YPFB\YPFB.vcxproj
C:\Users\xy6549ji\source\repos\YPFB\Release\YPFB.ipdb
C:\Users\xy6549ji\source\repos\YPFB\Release\YPFB.iobj
^C:\Users\xy6549ji\source\repos\YPFB\YPFB\YPFB.vcxproj
C:\Users\xy6549ji\source\repos\YPFB\Release\YPFB.ipdb
C:\Users\xy6549ji\source\repos\YPFB\Release\YPFB.iobj
^C:\Users\xy6549ji\source\repos\YPFB\YPFB\YPFB.vcxproj
C:\Users\xy6549ji\source\repos\YPFB\Release\YPFB.ipdb
C:\Users\xy6549ji\source\repos\YPFB\Release\YPFB.iobj
^C:\Users\xy6549ji\source\repos\YPFB\YPFB\YPFB.vcxproj
C:\Users\xy6549ji\source\repos\YPFB\Release\YPFB.ipdb
C:\Users\xy6549ji\source\repos\YPFB\Release\YPFB.iobj
^C:\Users\xy6549ji\source\repos\YPFB\YPFB\YPFB.vcxproj
C:\Users\xy6549ji\source\repos\YPFB\Release\YPFB.ipdb
C:\Users\xy6549ji\source\repos\YPFB\Release\YPFB.iobj
^C:\Users\xy6549ji\source\repos\YPFB\YPFB\YPFB.vcxproj
C:\Users\xy6549ji\source\repos\YPFB\Release\YPFB.ipdb
C:\Users\xy6549ji\source\repos\YPFB\Release\YPFB.iobj
^C:\Users\xy6549ji\source\repos\YPFB\YPFB\YPFB.vcxproj
C:\Users\xy6549ji\source\repos\YPFB\Release\YPFB.ipdb
C:\Users\xy6549ji\source\repos\YPFB\Release\YPFB.iobj
^C:\Users\xy6549ji\source\repos\YPFB\YPFB\YPFB.vcxproj
C:\Users\xy6549ji\source\repos\YPFB\Release\YPFB.ipdb
C:\Users\xy6549ji\source\repos\YPFB\Release\YPFB.iobj
^C:\Users\xy6549ji\source\repos\YPFB\YPFB\YPFB.vcxproj
C:\Users\xy6549ji\source\repos\YPFB\Release\YPFB.ipdb
C:\Users\xy6549ji\source\repos\YPFB\Release\YPFB.iobj
^C:\Users\xy6549ji\source\repos\YPFB\YPFB\YPFB.vcxproj
C:\Users\xy6549ji\source\repos\YPFB\Release\YPFB.ipdb
C:\Users\xy6549ji\source\repos\YPFB\Release\YPFB.iobj
^C:\Users\xy6549ji\source\repos\YPFB\YPFB\YPFB.vcxproj
C:\Users\xy6549ji\source\repos\YPFB\Release\YPFB.ipdb
C:\Users\xy6549ji\source\repos\YPFB\Release\YPFB.iobj
^C:\Users\xy6549ji\source\repos\YPFB\YPFB\YPFB.vcxproj
C:\Users\xy6549ji\source\repos\YPFB\Release\YPFB.ipdb
C:\Users\xy6549ji\source\repos\YPFB\Release\YPFB.iobj
^C:\Users\xy6549ji\source\repos\YPFB\YPFB\YPFB.vcxproj
C:\Users\xy6549ji\source\repos\YPFB\Release\YPFB.ipdb
C:\Users\xy6549ji\source\repos\YPFB\Release\YPFB.iobj
^C:\Users\xy6549ji\source\repos\YPFB\YPFB\YPFB.vcxproj
C:\Users\xy6549ji\source\repos\YPFB\Release\YPFB.ipdb
C:\Users\xy6549ji\source\repos\YPFB\Release\YPFB.iobj
^C:\Users\xy6549ji\source\repos\YPFB\YPFB\YPFB.vcxproj
C:\Users\xy6549ji\source\repos\YPFB\Release\YPFB.ipdb
C:\Users\xy6549ji\source\repos\YPFB\Release\YPFB.iobj
^C:\Users\xy6549ji\source\repos\YPFB\YPFB\YPFB.vcxproj
C:\Users\xy6549ji\source\repos\YPFB\Release\YPFB.ipdb
C:\Users\xy6549ji\source\repos\YPFB\Release\YPFB.iobj
^C:\Users\xy6549ji\source\repos\YPFB\YPFB\YPFB.vcxproj
C:\Users\xy6549ji\source\repos\YPFB\Release\YPFB.ipdb
C:\Users\xy6549ji\source\repos\YPFB\Release\YPFB.iobj
^C:\Users\xy6549ji\source\repos\YPFB\YPFB\YPFB.vcxproj
C:\Users\xy6549ji\source\repos\YPFB\Release\YPFB.ipdb
C:\Users\xy6549ji\source\repos\YPFB\Release\YPFB.iobj
^C:\Users\xy6549ji\source\repos\YPFB\YPFB\YPFB.vcxproj
C:\Users\xy6549ji\source\repos\YPFB\Release\YPFB.ipdb
C:\Users\xy6549ji\source\repos\YPFB\Release\YPFB.iobj
^C:\Users\xy6549ji\source\repos\YPFB\YPFB\YPFB.vcxproj
C:\Users\xy6549ji\source\repos\YPFB\Release\YPFB.ipdb
C:\Users\xy6549ji\source\repos\YPFB\Release\YPFB.iobj
