#Command: "C:\Program Files (x86)\Microsoft Visual Studio\2019\Community\VC\Tools\MSVC\14.22.27905\bin\HostX86\x64\link.exe" /ERRORREPORT:PROMPT @C:\Users\xy6549ji\AppData\Local\Temp\tmpe1570accfb7a44e186cb3ad1301312bb.rsp
^C:\USERS\XY6549JI\SOURCE\REPOS\YPFB\YPFB\X64\RELEASE\DETAIL.OBJ|C:\USERS\XY6549JI\SOURCE\REPOS\YPFB\YPFB\X64\RELEASE\DETAIL_CONFIRM.OBJ|C:\USERS\XY6549JI\SOURCE\REPOS\YPFB\YPFB\X64\RELEASE\DETAIL_SUMMARY.OBJ|C:\USERS\XY6549JI\SOURCE\REPOS\YPFB\YPFB\X64\RELEASE\DO_CLICK.OBJ|C:\USERS\XY6549JI\SOURCE\REPOS\YPFB\YPFB\X64\RELEASE\END.OBJ|C:\USERS\XY6549JI\SOURCE\REPOS\YPFB\YPFB\X64\RELEASE\FIND.OBJ|C:\USERS\XY6549JI\SOURCE\REPOS\YPFB\YPFB\X64\RELEASE\FOUND.OBJ|C:\USERS\XY6549JI\SOURCE\REPOS\YPFB\YPFB\X64\RELEASE\HOME.OBJ|C:\USERS\XY6549JI\SOURCE\REPOS\YPFB\YPFB\X64\RELEASE\INSERT_TEXT.OBJ|C:\USERS\XY6549JI\SOURCE\REPOS\YPFB\YPFB\X64\RELEASE\LOGIN.OBJ|C:\USERS\XY6549JI\SOURCE\REPOS\YPFB\YPFB\X64\RELEASE\SLEEP.OBJ|C:\USERS\XY6549JI\SOURCE\REPOS\YPFB\YPFB\X64\RELEASE\YPFB.OBJ|C:\USERS\XY6549JI\SOURCE\REPOS\YPFB\YPFB\X64\RELEASE\YPFB_ICON.RES
C:\USERS\XY6549JI\SOURCE\REPOS\YPFB\X64\RELEASE\YPFB.PDB
#Command: "C:\Program Files (x86)\Microsoft Visual Studio\2019\Community\VC\Tools\MSVC\14.22.27905\bin\HostX86\x64\link.exe" /ERRORREPORT:PROMPT @C:\Users\xy6549ji\AppData\Local\Temp\tmpa5578b3c31024b53b2a85dc41c4b7548.rsp
^C:\USERS\XY6549JI\SOURCE\REPOS\YPFB\YPFB\X64\RELEASE\DETAIL.OBJ|C:\USERS\XY6549JI\SOURCE\REPOS\YPFB\YPFB\X64\RELEASE\DETAIL_CONFIRM.OBJ|C:\USERS\XY6549JI\SOURCE\REPOS\YPFB\YPFB\X64\RELEASE\DETAIL_SUMMARY.OBJ|C:\USERS\XY6549JI\SOURCE\REPOS\YPFB\YPFB\X64\RELEASE\DO_CLICK.OBJ|C:\USERS\XY6549JI\SOURCE\REPOS\YPFB\YPFB\X64\RELEASE\END.OBJ|C:\USERS\XY6549JI\SOURCE\REPOS\YPFB\YPFB\X64\RELEASE\FIND.OBJ|C:\USERS\XY6549JI\SOURCE\REPOS\YPFB\YPFB\X64\RELEASE\FOUND.OBJ|C:\USERS\XY6549JI\SOURCE\REPOS\YPFB\YPFB\X64\RELEASE\HOME.OBJ|C:\USERS\XY6549JI\SOURCE\REPOS\YPFB\YPFB\X64\RELEASE\INSERT_TEXT.OBJ|C:\USERS\XY6549JI\SOURCE\REPOS\YPFB\YPFB\X64\RELEASE\LOGIN.OBJ|C:\USERS\XY6549JI\SOURCE\REPOS\YPFB\YPFB\X64\RELEASE\SLEEP.OBJ|C:\USERS\XY6549JI\SOURCE\REPOS\YPFB\YPFB\X64\RELEASE\YPFB.OBJ|C:\USERS\XY6549JI\SOURCE\REPOS\YPFB\YPFB\X64\RELEASE\YPFB_ICON.RES
C:\USERS\XY6549JI\SOURCE\REPOS\YPFB\X64\RELEASE\YPFB.PDB
#Command: "C:\Program Files (x86)\Microsoft Visual Studio\2019\Community\VC\Tools\MSVC\14.22.27905\bin\HostX86\x64\link.exe" /ERRORREPORT:PROMPT @C:\Users\xy6549ji\AppData\Local\Temp\tmpf31b287093224950b659a03dfd8a8181.rsp
^C:\USERS\XY6549JI\SOURCE\REPOS\YPFB\YPFB\X64\RELEASE\DETAIL.OBJ|C:\USERS\XY6549JI\SOURCE\REPOS\YPFB\YPFB\X64\RELEASE\DETAIL_CONFIRM.OBJ|C:\USERS\XY6549JI\SOURCE\REPOS\YPFB\YPFB\X64\RELEASE\DETAIL_SUMMARY.OBJ|C:\USERS\XY6549JI\SOURCE\REPOS\YPFB\YPFB\X64\RELEASE\DO_CLICK.OBJ|C:\USERS\XY6549JI\SOURCE\REPOS\YPFB\YPFB\X64\RELEASE\END.OBJ|C:\USERS\XY6549JI\SOURCE\REPOS\YPFB\YPFB\X64\RELEASE\FIND.OBJ|C:\USERS\XY6549JI\SOURCE\REPOS\YPFB\YPFB\X64\RELEASE\FOUND.OBJ|C:\USERS\XY6549JI\SOURCE\REPOS\YPFB\YPFB\X64\RELEASE\HOME.OBJ|C:\USERS\XY6549JI\SOURCE\REPOS\YPFB\YPFB\X64\RELEASE\INSERT_TEXT.OBJ|C:\USERS\XY6549JI\SOURCE\REPOS\YPFB\YPFB\X64\RELEASE\LOGIN.OBJ|C:\USERS\XY6549JI\SOURCE\REPOS\YPFB\YPFB\X64\RELEASE\SLEEP.OBJ|C:\USERS\XY6549JI\SOURCE\REPOS\YPFB\YPFB\X64\RELEASE\YPFB.OBJ|C:\USERS\XY6549JI\SOURCE\REPOS\YPFB\YPFB\X64\RELEASE\YPFB_ICON.RES
C:\USERS\XY6549JI\SOURCE\REPOS\YPFB\X64\RELEASE\YPFB.PDB
#Command: "C:\Program Files (x86)\Microsoft Visual Studio\2019\Community\VC\Tools\MSVC\14.22.27905\bin\HostX86\x64\link.exe" /ERRORREPORT:PROMPT @C:\Users\xy6549ji\AppData\Local\Temp\tmp86d96202cd1c4d5ebd08fe4aa726f8f7.rsp
^C:\USERS\XY6549JI\SOURCE\REPOS\YPFB\YPFB\X64\RELEASE\DETAIL.OBJ|C:\USERS\XY6549JI\SOURCE\REPOS\YPFB\YPFB\X64\RELEASE\DETAIL_CONFIRM.OBJ|C:\USERS\XY6549JI\SOURCE\REPOS\YPFB\YPFB\X64\RELEASE\DETAIL_SUMMARY.OBJ|C:\USERS\XY6549JI\SOURCE\REPOS\YPFB\YPFB\X64\RELEASE\DO_CLICK.OBJ|C:\USERS\XY6549JI\SOURCE\REPOS\YPFB\YPFB\X64\RELEASE\END.OBJ|C:\USERS\XY6549JI\SOURCE\REPOS\YPFB\YPFB\X64\RELEASE\FIND.OBJ|C:\USERS\XY6549JI\SOURCE\REPOS\YPFB\YPFB\X64\RELEASE\FOUND.OBJ|C:\USERS\XY6549JI\SOURCE\REPOS\YPFB\YPFB\X64\RELEASE\HOME.OBJ|C:\USERS\XY6549JI\SOURCE\REPOS\YPFB\YPFB\X64\RELEASE\INSERT_TEXT.OBJ|C:\USERS\XY6549JI\SOURCE\REPOS\YPFB\YPFB\X64\RELEASE\LOGIN.OBJ|C:\USERS\XY6549JI\SOURCE\REPOS\YPFB\YPFB\X64\RELEASE\SLEEP.OBJ|C:\USERS\XY6549JI\SOURCE\REPOS\YPFB\YPFB\X64\RELEASE\YPFB.OBJ|C:\USERS\XY6549JI\SOURCE\REPOS\YPFB\YPFB\X64\RELEASE\YPFB_ICON.RES
C:\USERS\XY6549JI\SOURCE\REPOS\YPFB\X64\RELEASE\YPFB.PDB
#Command: "C:\Program Files (x86)\Microsoft Visual Studio\2019\Community\VC\Tools\MSVC\14.22.27905\bin\HostX86\x64\link.exe" /ERRORREPORT:PROMPT @C:\Users\xy6549ji\AppData\Local\Temp\tmp46b411fb918749d3a5d090717152bfed.rsp
^C:\USERS\XY6549JI\SOURCE\REPOS\YPFB\YPFB\X64\RELEASE\DETAIL.OBJ|C:\USERS\XY6549JI\SOURCE\REPOS\YPFB\YPFB\X64\RELEASE\DETAIL_CONFIRM.OBJ|C:\USERS\XY6549JI\SOURCE\REPOS\YPFB\YPFB\X64\RELEASE\DETAIL_SUMMARY.OBJ|C:\USERS\XY6549JI\SOURCE\REPOS\YPFB\YPFB\X64\RELEASE\DO_CLICK.OBJ|C:\USERS\XY6549JI\SOURCE\REPOS\YPFB\YPFB\X64\RELEASE\END.OBJ|C:\USERS\XY6549JI\SOURCE\REPOS\YPFB\YPFB\X64\RELEASE\FIND.OBJ|C:\USERS\XY6549JI\SOURCE\REPOS\YPFB\YPFB\X64\RELEASE\FOUND.OBJ|C:\USERS\XY6549JI\SOURCE\REPOS\YPFB\YPFB\X64\RELEASE\HOME.OBJ|C:\USERS\XY6549JI\SOURCE\REPOS\YPFB\YPFB\X64\RELEASE\INSERT_TEXT.OBJ|C:\USERS\XY6549JI\SOURCE\REPOS\YPFB\YPFB\X64\RELEASE\LOGIN.OBJ|C:\USERS\XY6549JI\SOURCE\REPOS\YPFB\YPFB\X64\RELEASE\SLEEP.OBJ|C:\USERS\XY6549JI\SOURCE\REPOS\YPFB\YPFB\X64\RELEASE\YPFB.OBJ|C:\USERS\XY6549JI\SOURCE\REPOS\YPFB\YPFB\X64\RELEASE\YPFB_ICON.RES
C:\USERS\XY6549JI\SOURCE\REPOS\YPFB\X64\RELEASE\YPFB.PDB
#Command: "C:\Program Files (x86)\Microsoft Visual Studio\2019\Community\VC\Tools\MSVC\14.22.27905\bin\HostX86\x64\link.exe" /ERRORREPORT:PROMPT @C:\Users\xy6549ji\AppData\Local\Temp\tmp6dd4bf2d55454f5786459506edf0233c.rsp
^C:\USERS\XY6549JI\SOURCE\REPOS\YPFB\YPFB\X64\RELEASE\DETAIL.OBJ|C:\USERS\XY6549JI\SOURCE\REPOS\YPFB\YPFB\X64\RELEASE\DETAIL_CONFIRM.OBJ|C:\USERS\XY6549JI\SOURCE\REPOS\YPFB\YPFB\X64\RELEASE\DETAIL_SUMMARY.OBJ|C:\USERS\XY6549JI\SOURCE\REPOS\YPFB\YPFB\X64\RELEASE\DO_CLICK.OBJ|C:\USERS\XY6549JI\SOURCE\REPOS\YPFB\YPFB\X64\RELEASE\END.OBJ|C:\USERS\XY6549JI\SOURCE\REPOS\YPFB\YPFB\X64\RELEASE\FIND.OBJ|C:\USERS\XY6549JI\SOURCE\REPOS\YPFB\YPFB\X64\RELEASE\FOUND.OBJ|C:\USERS\XY6549JI\SOURCE\REPOS\YPFB\YPFB\X64\RELEASE\HOME.OBJ|C:\USERS\XY6549JI\SOURCE\REPOS\YPFB\YPFB\X64\RELEASE\INSERT_TEXT.OBJ|C:\USERS\XY6549JI\SOURCE\REPOS\YPFB\YPFB\X64\RELEASE\LOGIN.OBJ|C:\USERS\XY6549JI\SOURCE\REPOS\YPFB\YPFB\X64\RELEASE\SLEEP.OBJ|C:\USERS\XY6549JI\SOURCE\REPOS\YPFB\YPFB\X64\RELEASE\YPFB.OBJ|C:\USERS\XY6549JI\SOURCE\REPOS\YPFB\YPFB\X64\RELEASE\YPFB_ICON.RES
C:\USERS\XY6549JI\SOURCE\REPOS\YPFB\X64\RELEASE\YPFB.PDB
#Command: "C:\Program Files (x86)\Microsoft Visual Studio\2019\Community\VC\Tools\MSVC\14.22.27905\bin\HostX86\x64\link.exe" /ERRORREPORT:PROMPT @C:\Users\xy6549ji\AppData\Local\Temp\tmp29f45683f680465db4f08a744075dc34.rsp
^C:\USERS\XY6549JI\SOURCE\REPOS\YPFB\YPFB\X64\RELEASE\DETAIL.OBJ|C:\USERS\XY6549JI\SOURCE\REPOS\YPFB\YPFB\X64\RELEASE\DETAIL_CONFIRM.OBJ|C:\USERS\XY6549JI\SOURCE\REPOS\YPFB\YPFB\X64\RELEASE\DETAIL_SUMMARY.OBJ|C:\USERS\XY6549JI\SOURCE\REPOS\YPFB\YPFB\X64\RELEASE\DO_CLICK.OBJ|C:\USERS\XY6549JI\SOURCE\REPOS\YPFB\YPFB\X64\RELEASE\END.OBJ|C:\USERS\XY6549JI\SOURCE\REPOS\YPFB\YPFB\X64\RELEASE\FIND.OBJ|C:\USERS\XY6549JI\SOURCE\REPOS\YPFB\YPFB\X64\RELEASE\FOUND.OBJ|C:\USERS\XY6549JI\SOURCE\REPOS\YPFB\YPFB\X64\RELEASE\HOME.OBJ|C:\USERS\XY6549JI\SOURCE\REPOS\YPFB\YPFB\X64\RELEASE\INSERT_TEXT.OBJ|C:\USERS\XY6549JI\SOURCE\REPOS\YPFB\YPFB\X64\RELEASE\LOGIN.OBJ|C:\USERS\XY6549JI\SOURCE\REPOS\YPFB\YPFB\X64\RELEASE\SLEEP.OBJ|C:\USERS\XY6549JI\SOURCE\REPOS\YPFB\YPFB\X64\RELEASE\YPFB.OBJ|C:\USERS\XY6549JI\SOURCE\REPOS\YPFB\YPFB\X64\RELEASE\YPFB_ICON.RES
C:\USERS\XY6549JI\SOURCE\REPOS\YPFB\X64\RELEASE\YPFB.PDB
#Command: "C:\Program Files (x86)\Microsoft Visual Studio\2019\Community\VC\Tools\MSVC\14.22.27905\bin\HostX86\x64\link.exe" /ERRORREPORT:PROMPT @C:\Users\xy6549ji\AppData\Local\Temp\tmp970a85c5155b4e229a2dda2c52be8d55.rsp
^C:\USERS\XY6549JI\SOURCE\REPOS\YPFB\YPFB\X64\RELEASE\DETAIL.OBJ|C:\USERS\XY6549JI\SOURCE\REPOS\YPFB\YPFB\X64\RELEASE\DETAIL_CONFIRM.OBJ|C:\USERS\XY6549JI\SOURCE\REPOS\YPFB\YPFB\X64\RELEASE\DETAIL_SUMMARY.OBJ|C:\USERS\XY6549JI\SOURCE\REPOS\YPFB\YPFB\X64\RELEASE\DO_CLICK.OBJ|C:\USERS\XY6549JI\SOURCE\REPOS\YPFB\YPFB\X64\RELEASE\END.OBJ|C:\USERS\XY6549JI\SOURCE\REPOS\YPFB\YPFB\X64\RELEASE\FIND.OBJ|C:\USERS\XY6549JI\SOURCE\REPOS\YPFB\YPFB\X64\RELEASE\FOUND.OBJ|C:\USERS\XY6549JI\SOURCE\REPOS\YPFB\YPFB\X64\RELEASE\HOME.OBJ|C:\USERS\XY6549JI\SOURCE\REPOS\YPFB\YPFB\X64\RELEASE\INSERT_TEXT.OBJ|C:\USERS\XY6549JI\SOURCE\REPOS\YPFB\YPFB\X64\RELEASE\LOGIN.OBJ|C:\USERS\XY6549JI\SOURCE\REPOS\YPFB\YPFB\X64\RELEASE\SLEEP.OBJ|C:\USERS\XY6549JI\SOURCE\REPOS\YPFB\YPFB\X64\RELEASE\YPFB.OBJ|C:\USERS\XY6549JI\SOURCE\REPOS\YPFB\YPFB\X64\RELEASE\YPFB_ICON.RES
C:\USERS\XY6549JI\SOURCE\REPOS\YPFB\X64\RELEASE\YPFB.PDB
#Command: "C:\Program Files (x86)\Microsoft Visual Studio\2019\Community\VC\Tools\MSVC\14.22.27905\bin\HostX86\x64\link.exe" /ERRORREPORT:PROMPT @C:\Users\xy6549ji\AppData\Local\Temp\tmp8b35a25045cc4803823f2f06f7eb2deb.rsp
^C:\USERS\XY6549JI\SOURCE\REPOS\YPFB\YPFB\X64\RELEASE\DETAIL.OBJ|C:\USERS\XY6549JI\SOURCE\REPOS\YPFB\YPFB\X64\RELEASE\DETAIL_CONFIRM.OBJ|C:\USERS\XY6549JI\SOURCE\REPOS\YPFB\YPFB\X64\RELEASE\DETAIL_SUMMARY.OBJ|C:\USERS\XY6549JI\SOURCE\REPOS\YPFB\YPFB\X64\RELEASE\DO_CLICK.OBJ|C:\USERS\XY6549JI\SOURCE\REPOS\YPFB\YPFB\X64\RELEASE\END.OBJ|C:\USERS\XY6549JI\SOURCE\REPOS\YPFB\YPFB\X64\RELEASE\FIND.OBJ|C:\USERS\XY6549JI\SOURCE\REPOS\YPFB\YPFB\X64\RELEASE\FOUND.OBJ|C:\USERS\XY6549JI\SOURCE\REPOS\YPFB\YPFB\X64\RELEASE\HOME.OBJ|C:\USERS\XY6549JI\SOURCE\REPOS\YPFB\YPFB\X64\RELEASE\INSERT_TEXT.OBJ|C:\USERS\XY6549JI\SOURCE\REPOS\YPFB\YPFB\X64\RELEASE\LOGIN.OBJ|C:\USERS\XY6549JI\SOURCE\REPOS\YPFB\YPFB\X64\RELEASE\SLEEP.OBJ|C:\USERS\XY6549JI\SOURCE\REPOS\YPFB\YPFB\X64\RELEASE\YPFB.OBJ|C:\USERS\XY6549JI\SOURCE\REPOS\YPFB\YPFB\X64\RELEASE\YPFB_ICON.RES
C:\USERS\XY6549JI\SOURCE\REPOS\YPFB\X64\RELEASE\YPFB.PDB
#Command: "C:\Program Files (x86)\Microsoft Visual Studio\2019\Community\VC\Tools\MSVC\14.22.27905\bin\HostX86\x64\link.exe" /ERRORREPORT:PROMPT @C:\Users\xy6549ji\AppData\Local\Temp\tmp93685fcbd5784ac28c54d4e7ebd70df5.rsp
^C:\USERS\XY6549JI\SOURCE\REPOS\YPFB\YPFB\X64\RELEASE\DETAIL.OBJ|C:\USERS\XY6549JI\SOURCE\REPOS\YPFB\YPFB\X64\RELEASE\DETAIL_CONFIRM.OBJ|C:\USERS\XY6549JI\SOURCE\REPOS\YPFB\YPFB\X64\RELEASE\DETAIL_SUMMARY.OBJ|C:\USERS\XY6549JI\SOURCE\REPOS\YPFB\YPFB\X64\RELEASE\DO_CLICK.OBJ|C:\USERS\XY6549JI\SOURCE\REPOS\YPFB\YPFB\X64\RELEASE\END.OBJ|C:\USERS\XY6549JI\SOURCE\REPOS\YPFB\YPFB\X64\RELEASE\FIND.OBJ|C:\USERS\XY6549JI\SOURCE\REPOS\YPFB\YPFB\X64\RELEASE\FOUND.OBJ|C:\USERS\XY6549JI\SOURCE\REPOS\YPFB\YPFB\X64\RELEASE\HOME.OBJ|C:\USERS\XY6549JI\SOURCE\REPOS\YPFB\YPFB\X64\RELEASE\INSERT_TEXT.OBJ|C:\USERS\XY6549JI\SOURCE\REPOS\YPFB\YPFB\X64\RELEASE\LOGIN.OBJ|C:\USERS\XY6549JI\SOURCE\REPOS\YPFB\YPFB\X64\RELEASE\SLEEP.OBJ|C:\USERS\XY6549JI\SOURCE\REPOS\YPFB\YPFB\X64\RELEASE\YPFB.OBJ|C:\USERS\XY6549JI\SOURCE\REPOS\YPFB\YPFB\X64\RELEASE\YPFB_ICON.RES
C:\USERS\XY6549JI\SOURCE\REPOS\YPFB\X64\RELEASE\YPFB.PDB
#Command: "C:\Program Files (x86)\Microsoft Visual Studio\2019\Community\VC\Tools\MSVC\14.22.27905\bin\HostX86\x64\link.exe" /ERRORREPORT:PROMPT @C:\Users\xy6549ji\AppData\Local\Temp\tmpd1c3f8c4f7a543979235a3d5be302a5a.rsp
^C:\USERS\XY6549JI\SOURCE\REPOS\YPFB\YPFB\X64\RELEASE\DETAIL.OBJ|C:\USERS\XY6549JI\SOURCE\REPOS\YPFB\YPFB\X64\RELEASE\DETAIL_CONFIRM.OBJ|C:\USERS\XY6549JI\SOURCE\REPOS\YPFB\YPFB\X64\RELEASE\DETAIL_SUMMARY.OBJ|C:\USERS\XY6549JI\SOURCE\REPOS\YPFB\YPFB\X64\RELEASE\DO_CLICK.OBJ|C:\USERS\XY6549JI\SOURCE\REPOS\YPFB\YPFB\X64\RELEASE\END.OBJ|C:\USERS\XY6549JI\SOURCE\REPOS\YPFB\YPFB\X64\RELEASE\FIND.OBJ|C:\USERS\XY6549JI\SOURCE\REPOS\YPFB\YPFB\X64\RELEASE\FOUND.OBJ|C:\USERS\XY6549JI\SOURCE\REPOS\YPFB\YPFB\X64\RELEASE\HOME.OBJ|C:\USERS\XY6549JI\SOURCE\REPOS\YPFB\YPFB\X64\RELEASE\INSERT_TEXT.OBJ|C:\USERS\XY6549JI\SOURCE\REPOS\YPFB\YPFB\X64\RELEASE\LOGIN.OBJ|C:\USERS\XY6549JI\SOURCE\REPOS\YPFB\YPFB\X64\RELEASE\SLEEP.OBJ|C:\USERS\XY6549JI\SOURCE\REPOS\YPFB\YPFB\X64\RELEASE\YPFB.OBJ|C:\USERS\XY6549JI\SOURCE\REPOS\YPFB\YPFB\X64\RELEASE\YPFB_ICON.RES
C:\USERS\XY6549JI\SOURCE\REPOS\YPFB\X64\RELEASE\YPFB.PDB
#Command: "C:\Program Files (x86)\Microsoft Visual Studio\2019\Community\VC\Tools\MSVC\14.22.27905\bin\HostX86\x64\link.exe" /ERRORREPORT:PROMPT @C:\Users\xy6549ji\AppData\Local\Temp\tmp14375379898e40cfa8df9be428c11379.rsp
^C:\USERS\XY6549JI\SOURCE\REPOS\YPFB\YPFB\X64\RELEASE\DETAIL.OBJ|C:\USERS\XY6549JI\SOURCE\REPOS\YPFB\YPFB\X64\RELEASE\DETAIL_CONFIRM.OBJ|C:\USERS\XY6549JI\SOURCE\REPOS\YPFB\YPFB\X64\RELEASE\DETAIL_SUMMARY.OBJ|C:\USERS\XY6549JI\SOURCE\REPOS\YPFB\YPFB\X64\RELEASE\DO_CLICK.OBJ|C:\USERS\XY6549JI\SOURCE\REPOS\YPFB\YPFB\X64\RELEASE\END.OBJ|C:\USERS\XY6549JI\SOURCE\REPOS\YPFB\YPFB\X64\RELEASE\FIND.OBJ|C:\USERS\XY6549JI\SOURCE\REPOS\YPFB\YPFB\X64\RELEASE\FOUND.OBJ|C:\USERS\XY6549JI\SOURCE\REPOS\YPFB\YPFB\X64\RELEASE\HOME.OBJ|C:\USERS\XY6549JI\SOURCE\REPOS\YPFB\YPFB\X64\RELEASE\INSERT_TEXT.OBJ|C:\USERS\XY6549JI\SOURCE\REPOS\YPFB\YPFB\X64\RELEASE\LOGIN.OBJ|C:\USERS\XY6549JI\SOURCE\REPOS\YPFB\YPFB\X64\RELEASE\SLEEP.OBJ|C:\USERS\XY6549JI\SOURCE\REPOS\YPFB\YPFB\X64\RELEASE\YPFB.OBJ|C:\USERS\XY6549JI\SOURCE\REPOS\YPFB\YPFB\X64\RELEASE\YPFB_ICON.RES
C:\USERS\XY6549JI\SOURCE\REPOS\YPFB\X64\RELEASE\YPFB.PDB
#Command: "C:\Program Files (x86)\Microsoft Visual Studio\2019\Community\VC\Tools\MSVC\14.22.27905\bin\HostX86\x64\link.exe" /ERRORREPORT:PROMPT @C:\Users\xy6549ji\AppData\Local\Temp\tmp02d7d0e71eef4bbda0ae17adc4daa390.rsp
^C:\USERS\XY6549JI\SOURCE\REPOS\YPFB\YPFB\X64\RELEASE\DETAIL.OBJ|C:\USERS\XY6549JI\SOURCE\REPOS\YPFB\YPFB\X64\RELEASE\DETAIL_CONFIRM.OBJ|C:\USERS\XY6549JI\SOURCE\REPOS\YPFB\YPFB\X64\RELEASE\DETAIL_SUMMARY.OBJ|C:\USERS\XY6549JI\SOURCE\REPOS\YPFB\YPFB\X64\RELEASE\DO_CLICK.OBJ|C:\USERS\XY6549JI\SOURCE\REPOS\YPFB\YPFB\X64\RELEASE\END.OBJ|C:\USERS\XY6549JI\SOURCE\REPOS\YPFB\YPFB\X64\RELEASE\FIND.OBJ|C:\USERS\XY6549JI\SOURCE\REPOS\YPFB\YPFB\X64\RELEASE\FOUND.OBJ|C:\USERS\XY6549JI\SOURCE\REPOS\YPFB\YPFB\X64\RELEASE\HOME.OBJ|C:\USERS\XY6549JI\SOURCE\REPOS\YPFB\YPFB\X64\RELEASE\INSERT_TEXT.OBJ|C:\USERS\XY6549JI\SOURCE\REPOS\YPFB\YPFB\X64\RELEASE\LOGIN.OBJ|C:\USERS\XY6549JI\SOURCE\REPOS\YPFB\YPFB\X64\RELEASE\SLEEP.OBJ|C:\USERS\XY6549JI\SOURCE\REPOS\YPFB\YPFB\X64\RELEASE\YPFB.OBJ|C:\USERS\XY6549JI\SOURCE\REPOS\YPFB\YPFB\X64\RELEASE\YPFB_ICON.RES
C:\USERS\XY6549JI\SOURCE\REPOS\YPFB\X64\RELEASE\YPFB.PDB
#Command: "C:\Program Files (x86)\Microsoft Visual Studio\2019\Community\VC\Tools\MSVC\14.22.27905\bin\HostX86\x64\link.exe" /ERRORREPORT:PROMPT @C:\Users\xy6549ji\AppData\Local\Temp\tmp0fdc79f43e33421899220d9ab1871e1b.rsp
^C:\USERS\XY6549JI\SOURCE\REPOS\YPFB\YPFB\X64\RELEASE\DETAIL.OBJ|C:\USERS\XY6549JI\SOURCE\REPOS\YPFB\YPFB\X64\RELEASE\DETAIL_CONFIRM.OBJ|C:\USERS\XY6549JI\SOURCE\REPOS\YPFB\YPFB\X64\RELEASE\DETAIL_SUMMARY.OBJ|C:\USERS\XY6549JI\SOURCE\REPOS\YPFB\YPFB\X64\RELEASE\DO_CLICK.OBJ|C:\USERS\XY6549JI\SOURCE\REPOS\YPFB\YPFB\X64\RELEASE\END.OBJ|C:\USERS\XY6549JI\SOURCE\REPOS\YPFB\YPFB\X64\RELEASE\FIND.OBJ|C:\USERS\XY6549JI\SOURCE\REPOS\YPFB\YPFB\X64\RELEASE\FOUND.OBJ|C:\USERS\XY6549JI\SOURCE\REPOS\YPFB\YPFB\X64\RELEASE\HOME.OBJ|C:\USERS\XY6549JI\SOURCE\REPOS\YPFB\YPFB\X64\RELEASE\INSERT_TEXT.OBJ|C:\USERS\XY6549JI\SOURCE\REPOS\YPFB\YPFB\X64\RELEASE\LOGIN.OBJ|C:\USERS\XY6549JI\SOURCE\REPOS\YPFB\YPFB\X64\RELEASE\SLEEP.OBJ|C:\USERS\XY6549JI\SOURCE\REPOS\YPFB\YPFB\X64\RELEASE\YPFB.OBJ|C:\USERS\XY6549JI\SOURCE\REPOS\YPFB\YPFB\X64\RELEASE\YPFB_ICON.RES
C:\USERS\XY6549JI\SOURCE\REPOS\YPFB\X64\RELEASE\YPFB.PDB
#Command: "C:\Program Files (x86)\Microsoft Visual Studio\2019\Community\VC\Tools\MSVC\14.22.27905\bin\HostX86\x64\link.exe" /ERRORREPORT:PROMPT @C:\Users\xy6549ji\AppData\Local\Temp\tmp3e70915feb67403cb600f4cccaf71fc7.rsp
^C:\USERS\XY6549JI\SOURCE\REPOS\YPFB\YPFB\X64\RELEASE\DETAIL.OBJ|C:\USERS\XY6549JI\SOURCE\REPOS\YPFB\YPFB\X64\RELEASE\DETAIL_CONFIRM.OBJ|C:\USERS\XY6549JI\SOURCE\REPOS\YPFB\YPFB\X64\RELEASE\DETAIL_SUMMARY.OBJ|C:\USERS\XY6549JI\SOURCE\REPOS\YPFB\YPFB\X64\RELEASE\DO_CLICK.OBJ|C:\USERS\XY6549JI\SOURCE\REPOS\YPFB\YPFB\X64\RELEASE\END.OBJ|C:\USERS\XY6549JI\SOURCE\REPOS\YPFB\YPFB\X64\RELEASE\FIND.OBJ|C:\USERS\XY6549JI\SOURCE\REPOS\YPFB\YPFB\X64\RELEASE\FOUND.OBJ|C:\USERS\XY6549JI\SOURCE\REPOS\YPFB\YPFB\X64\RELEASE\HOME.OBJ|C:\USERS\XY6549JI\SOURCE\REPOS\YPFB\YPFB\X64\RELEASE\INSERT_TEXT.OBJ|C:\USERS\XY6549JI\SOURCE\REPOS\YPFB\YPFB\X64\RELEASE\LOGIN.OBJ|C:\USERS\XY6549JI\SOURCE\REPOS\YPFB\YPFB\X64\RELEASE\SLEEP.OBJ|C:\USERS\XY6549JI\SOURCE\REPOS\YPFB\YPFB\X64\RELEASE\YPFB.OBJ|C:\USERS\XY6549JI\SOURCE\REPOS\YPFB\YPFB\X64\RELEASE\YPFB_ICON.RES
C:\USERS\XY6549JI\SOURCE\REPOS\YPFB\X64\RELEASE\YPFB.PDB
#Command: "C:\Program Files (x86)\Microsoft Visual Studio\2019\Community\VC\Tools\MSVC\14.22.27905\bin\HostX86\x64\link.exe" /ERRORREPORT:PROMPT @C:\Users\xy6549ji\AppData\Local\Temp\tmpb0a31511a61f407bad952cc1c88c11a9.rsp
^C:\USERS\XY6549JI\SOURCE\REPOS\YPFB\YPFB\X64\RELEASE\DETAIL.OBJ|C:\USERS\XY6549JI\SOURCE\REPOS\YPFB\YPFB\X64\RELEASE\DETAIL_CONFIRM.OBJ|C:\USERS\XY6549JI\SOURCE\REPOS\YPFB\YPFB\X64\RELEASE\DETAIL_SUMMARY.OBJ|C:\USERS\XY6549JI\SOURCE\REPOS\YPFB\YPFB\X64\RELEASE\DO_CLICK.OBJ|C:\USERS\XY6549JI\SOURCE\REPOS\YPFB\YPFB\X64\RELEASE\END.OBJ|C:\USERS\XY6549JI\SOURCE\REPOS\YPFB\YPFB\X64\RELEASE\FIND.OBJ|C:\USERS\XY6549JI\SOURCE\REPOS\YPFB\YPFB\X64\RELEASE\FOUND.OBJ|C:\USERS\XY6549JI\SOURCE\REPOS\YPFB\YPFB\X64\RELEASE\HOME.OBJ|C:\USERS\XY6549JI\SOURCE\REPOS\YPFB\YPFB\X64\RELEASE\INSERT_TEXT.OBJ|C:\USERS\XY6549JI\SOURCE\REPOS\YPFB\YPFB\X64\RELEASE\LOGIN.OBJ|C:\USERS\XY6549JI\SOURCE\REPOS\YPFB\YPFB\X64\RELEASE\SLEEP.OBJ|C:\USERS\XY6549JI\SOURCE\REPOS\YPFB\YPFB\X64\RELEASE\YPFB.OBJ|C:\USERS\XY6549JI\SOURCE\REPOS\YPFB\YPFB\X64\RELEASE\YPFB_ICON.RES
C:\USERS\XY6549JI\SOURCE\REPOS\YPFB\X64\RELEASE\YPFB.PDB
#Command: "C:\Program Files (x86)\Microsoft Visual Studio\2019\Community\VC\Tools\MSVC\14.22.27905\bin\HostX86\x64\link.exe" /ERRORREPORT:PROMPT @C:\Users\xy6549ji\AppData\Local\Temp\tmp445932262be240ffad5307ead6c8688a.rsp
^C:\USERS\XY6549JI\SOURCE\REPOS\YPFB\YPFB\X64\RELEASE\DETAIL.OBJ|C:\USERS\XY6549JI\SOURCE\REPOS\YPFB\YPFB\X64\RELEASE\DETAIL_CONFIRM.OBJ|C:\USERS\XY6549JI\SOURCE\REPOS\YPFB\YPFB\X64\RELEASE\DETAIL_SUMMARY.OBJ|C:\USERS\XY6549JI\SOURCE\REPOS\YPFB\YPFB\X64\RELEASE\DO_CLICK.OBJ|C:\USERS\XY6549JI\SOURCE\REPOS\YPFB\YPFB\X64\RELEASE\END.OBJ|C:\USERS\XY6549JI\SOURCE\REPOS\YPFB\YPFB\X64\RELEASE\FIND.OBJ|C:\USERS\XY6549JI\SOURCE\REPOS\YPFB\YPFB\X64\RELEASE\FOUND.OBJ|C:\USERS\XY6549JI\SOURCE\REPOS\YPFB\YPFB\X64\RELEASE\HOME.OBJ|C:\USERS\XY6549JI\SOURCE\REPOS\YPFB\YPFB\X64\RELEASE\INSERT_TEXT.OBJ|C:\USERS\XY6549JI\SOURCE\REPOS\YPFB\YPFB\X64\RELEASE\LOGIN.OBJ|C:\USERS\XY6549JI\SOURCE\REPOS\YPFB\YPFB\X64\RELEASE\SLEEP.OBJ|C:\USERS\XY6549JI\SOURCE\REPOS\YPFB\YPFB\X64\RELEASE\YPFB.OBJ|C:\USERS\XY6549JI\SOURCE\REPOS\YPFB\YPFB\X64\RELEASE\YPFB_ICON.RES
C:\USERS\XY6549JI\SOURCE\REPOS\YPFB\X64\RELEASE\YPFB.PDB
#Command: "C:\Program Files (x86)\Microsoft Visual Studio\2019\Community\VC\Tools\MSVC\14.22.27905\bin\HostX86\x64\link.exe" /ERRORREPORT:PROMPT @C:\Users\xy6549ji\AppData\Local\Temp\tmp0b706779962248498d40b0a51a6876bf.rsp
^C:\USERS\XY6549JI\SOURCE\REPOS\YPFB\YPFB\X64\RELEASE\DETAIL.OBJ|C:\USERS\XY6549JI\SOURCE\REPOS\YPFB\YPFB\X64\RELEASE\DETAIL_CONFIRM.OBJ|C:\USERS\XY6549JI\SOURCE\REPOS\YPFB\YPFB\X64\RELEASE\DETAIL_SUMMARY.OBJ|C:\USERS\XY6549JI\SOURCE\REPOS\YPFB\YPFB\X64\RELEASE\DO_CLICK.OBJ|C:\USERS\XY6549JI\SOURCE\REPOS\YPFB\YPFB\X64\RELEASE\END.OBJ|C:\USERS\XY6549JI\SOURCE\REPOS\YPFB\YPFB\X64\RELEASE\FIND.OBJ|C:\USERS\XY6549JI\SOURCE\REPOS\YPFB\YPFB\X64\RELEASE\FOUND.OBJ|C:\USERS\XY6549JI\SOURCE\REPOS\YPFB\YPFB\X64\RELEASE\HOME.OBJ|C:\USERS\XY6549JI\SOURCE\REPOS\YPFB\YPFB\X64\RELEASE\INSERT_TEXT.OBJ|C:\USERS\XY6549JI\SOURCE\REPOS\YPFB\YPFB\X64\RELEASE\LOGIN.OBJ|C:\USERS\XY6549JI\SOURCE\REPOS\YPFB\YPFB\X64\RELEASE\SLEEP.OBJ|C:\USERS\XY6549JI\SOURCE\REPOS\YPFB\YPFB\X64\RELEASE\YPFB.OBJ|C:\USERS\XY6549JI\SOURCE\REPOS\YPFB\YPFB\X64\RELEASE\YPFB_ICON.RES
C:\USERS\XY6549JI\SOURCE\REPOS\YPFB\X64\RELEASE\YPFB.PDB
#Command: "C:\Program Files (x86)\Microsoft Visual Studio\2019\Community\VC\Tools\MSVC\14.22.27905\bin\HostX86\x64\link.exe" /ERRORREPORT:PROMPT @C:\Users\xy6549ji\AppData\Local\Temp\tmp2f8320b05f3040ab8c0af0c4d0623e67.rsp
^C:\USERS\XY6549JI\SOURCE\REPOS\YPFB\YPFB\X64\RELEASE\DETAIL.OBJ|C:\USERS\XY6549JI\SOURCE\REPOS\YPFB\YPFB\X64\RELEASE\DETAIL_CONFIRM.OBJ|C:\USERS\XY6549JI\SOURCE\REPOS\YPFB\YPFB\X64\RELEASE\DETAIL_SUMMARY.OBJ|C:\USERS\XY6549JI\SOURCE\REPOS\YPFB\YPFB\X64\RELEASE\DO_CLICK.OBJ|C:\USERS\XY6549JI\SOURCE\REPOS\YPFB\YPFB\X64\RELEASE\END.OBJ|C:\USERS\XY6549JI\SOURCE\REPOS\YPFB\YPFB\X64\RELEASE\FIND.OBJ|C:\USERS\XY6549JI\SOURCE\REPOS\YPFB\YPFB\X64\RELEASE\FOUND.OBJ|C:\USERS\XY6549JI\SOURCE\REPOS\YPFB\YPFB\X64\RELEASE\HOME.OBJ|C:\USERS\XY6549JI\SOURCE\REPOS\YPFB\YPFB\X64\RELEASE\INSERT_TEXT.OBJ|C:\USERS\XY6549JI\SOURCE\REPOS\YPFB\YPFB\X64\RELEASE\LOGIN.OBJ|C:\USERS\XY6549JI\SOURCE\REPOS\YPFB\YPFB\X64\RELEASE\SLEEP.OBJ|C:\USERS\XY6549JI\SOURCE\REPOS\YPFB\YPFB\X64\RELEASE\YPFB.OBJ|C:\USERS\XY6549JI\SOURCE\REPOS\YPFB\YPFB\X64\RELEASE\YPFB_ICON.RES
C:\USERS\XY6549JI\SOURCE\REPOS\YPFB\X64\RELEASE\YPFB.PDB
#Command: "C:\Program Files (x86)\Microsoft Visual Studio\2019\Community\VC\Tools\MSVC\14.22.27905\bin\HostX86\x64\link.exe" /ERRORREPORT:PROMPT @C:\Users\xy6549ji\AppData\Local\Temp\tmp4d125e70a9c346df88422cff73972097.rsp
^C:\USERS\XY6549JI\SOURCE\REPOS\YPFB\YPFB\X64\RELEASE\DETAIL.OBJ|C:\USERS\XY6549JI\SOURCE\REPOS\YPFB\YPFB\X64\RELEASE\DETAIL_CONFIRM.OBJ|C:\USERS\XY6549JI\SOURCE\REPOS\YPFB\YPFB\X64\RELEASE\DETAIL_SUMMARY.OBJ|C:\USERS\XY6549JI\SOURCE\REPOS\YPFB\YPFB\X64\RELEASE\DO_CLICK.OBJ|C:\USERS\XY6549JI\SOURCE\REPOS\YPFB\YPFB\X64\RELEASE\END.OBJ|C:\USERS\XY6549JI\SOURCE\REPOS\YPFB\YPFB\X64\RELEASE\FIND.OBJ|C:\USERS\XY6549JI\SOURCE\REPOS\YPFB\YPFB\X64\RELEASE\FOUND.OBJ|C:\USERS\XY6549JI\SOURCE\REPOS\YPFB\YPFB\X64\RELEASE\HOME.OBJ|C:\USERS\XY6549JI\SOURCE\REPOS\YPFB\YPFB\X64\RELEASE\INSERT_TEXT.OBJ|C:\USERS\XY6549JI\SOURCE\REPOS\YPFB\YPFB\X64\RELEASE\LOGIN.OBJ|C:\USERS\XY6549JI\SOURCE\REPOS\YPFB\YPFB\X64\RELEASE\SLEEP.OBJ|C:\USERS\XY6549JI\SOURCE\REPOS\YPFB\YPFB\X64\RELEASE\YPFB.OBJ|C:\USERS\XY6549JI\SOURCE\REPOS\YPFB\YPFB\X64\RELEASE\YPFB_ICON.RES
C:\USERS\XY6549JI\SOURCE\REPOS\YPFB\X64\RELEASE\YPFB.PDB
#Command: "C:\Program Files (x86)\Microsoft Visual Studio\2019\Community\VC\Tools\MSVC\14.22.27905\bin\HostX86\x64\link.exe" /ERRORREPORT:PROMPT @C:\Users\xy6549ji\AppData\Local\Temp\tmp40980e142c50454ebaf36b63aa10c975.rsp
^C:\USERS\XY6549JI\SOURCE\REPOS\YPFB\YPFB\X64\RELEASE\DETAIL.OBJ|C:\USERS\XY6549JI\SOURCE\REPOS\YPFB\YPFB\X64\RELEASE\DETAIL_CONFIRM.OBJ|C:\USERS\XY6549JI\SOURCE\REPOS\YPFB\YPFB\X64\RELEASE\DETAIL_SUMMARY.OBJ|C:\USERS\XY6549JI\SOURCE\REPOS\YPFB\YPFB\X64\RELEASE\DO_CLICK.OBJ|C:\USERS\XY6549JI\SOURCE\REPOS\YPFB\YPFB\X64\RELEASE\END.OBJ|C:\USERS\XY6549JI\SOURCE\REPOS\YPFB\YPFB\X64\RELEASE\FIND.OBJ|C:\USERS\XY6549JI\SOURCE\REPOS\YPFB\YPFB\X64\RELEASE\FOUND.OBJ|C:\USERS\XY6549JI\SOURCE\REPOS\YPFB\YPFB\X64\RELEASE\HOME.OBJ|C:\USERS\XY6549JI\SOURCE\REPOS\YPFB\YPFB\X64\RELEASE\INSERT_TEXT.OBJ|C:\USERS\XY6549JI\SOURCE\REPOS\YPFB\YPFB\X64\RELEASE\LOGIN.OBJ|C:\USERS\XY6549JI\SOURCE\REPOS\YPFB\YPFB\X64\RELEASE\SLEEP.OBJ|C:\USERS\XY6549JI\SOURCE\REPOS\YPFB\YPFB\X64\RELEASE\YPFB.OBJ|C:\USERS\XY6549JI\SOURCE\REPOS\YPFB\YPFB\X64\RELEASE\YPFB_ICON.RES
C:\USERS\XY6549JI\SOURCE\REPOS\YPFB\X64\RELEASE\YPFB.PDB
#Command: "C:\Program Files (x86)\Microsoft Visual Studio\2019\Community\VC\Tools\MSVC\14.22.27905\bin\HostX86\x64\link.exe" /ERRORREPORT:PROMPT @C:\Users\xy6549ji\AppData\Local\Temp\tmp6a843334489b4ca990035dba14137c51.rsp
^C:\USERS\XY6549JI\SOURCE\REPOS\YPFB\YPFB\X64\RELEASE\DETAIL.OBJ|C:\USERS\XY6549JI\SOURCE\REPOS\YPFB\YPFB\X64\RELEASE\DETAIL_CONFIRM.OBJ|C:\USERS\XY6549JI\SOURCE\REPOS\YPFB\YPFB\X64\RELEASE\DETAIL_SUMMARY.OBJ|C:\USERS\XY6549JI\SOURCE\REPOS\YPFB\YPFB\X64\RELEASE\DO_CLICK.OBJ|C:\USERS\XY6549JI\SOURCE\REPOS\YPFB\YPFB\X64\RELEASE\END.OBJ|C:\USERS\XY6549JI\SOURCE\REPOS\YPFB\YPFB\X64\RELEASE\FIND.OBJ|C:\USERS\XY6549JI\SOURCE\REPOS\YPFB\YPFB\X64\RELEASE\FOUND.OBJ|C:\USERS\XY6549JI\SOURCE\REPOS\YPFB\YPFB\X64\RELEASE\HOME.OBJ|C:\USERS\XY6549JI\SOURCE\REPOS\YPFB\YPFB\X64\RELEASE\INSERT_TEXT.OBJ|C:\USERS\XY6549JI\SOURCE\REPOS\YPFB\YPFB\X64\RELEASE\LOGIN.OBJ|C:\USERS\XY6549JI\SOURCE\REPOS\YPFB\YPFB\X64\RELEASE\SLEEP.OBJ|C:\USERS\XY6549JI\SOURCE\REPOS\YPFB\YPFB\X64\RELEASE\YPFB.OBJ|C:\USERS\XY6549JI\SOURCE\REPOS\YPFB\YPFB\X64\RELEASE\YPFB_ICON.RES
C:\USERS\XY6549JI\SOURCE\REPOS\YPFB\X64\RELEASE\YPFB.PDB
#Command: "C:\Program Files (x86)\Microsoft Visual Studio\2019\Community\VC\Tools\MSVC\14.22.27905\bin\HostX86\x64\link.exe" /ERRORREPORT:PROMPT @C:\Users\xy6549ji\AppData\Local\Temp\tmp23acf56c6c66440ea60d06ad034a430f.rsp
^C:\USERS\XY6549JI\SOURCE\REPOS\YPFB\YPFB\X64\RELEASE\DETAIL.OBJ|C:\USERS\XY6549JI\SOURCE\REPOS\YPFB\YPFB\X64\RELEASE\DETAIL_CONFIRM.OBJ|C:\USERS\XY6549JI\SOURCE\REPOS\YPFB\YPFB\X64\RELEASE\DETAIL_SUMMARY.OBJ|C:\USERS\XY6549JI\SOURCE\REPOS\YPFB\YPFB\X64\RELEASE\DO_CLICK.OBJ|C:\USERS\XY6549JI\SOURCE\REPOS\YPFB\YPFB\X64\RELEASE\END.OBJ|C:\USERS\XY6549JI\SOURCE\REPOS\YPFB\YPFB\X64\RELEASE\FIND.OBJ|C:\USERS\XY6549JI\SOURCE\REPOS\YPFB\YPFB\X64\RELEASE\FOUND.OBJ|C:\USERS\XY6549JI\SOURCE\REPOS\YPFB\YPFB\X64\RELEASE\HOME.OBJ|C:\USERS\XY6549JI\SOURCE\REPOS\YPFB\YPFB\X64\RELEASE\INSERT_TEXT.OBJ|C:\USERS\XY6549JI\SOURCE\REPOS\YPFB\YPFB\X64\RELEASE\LOGIN.OBJ|C:\USERS\XY6549JI\SOURCE\REPOS\YPFB\YPFB\X64\RELEASE\SLEEP.OBJ|C:\USERS\XY6549JI\SOURCE\REPOS\YPFB\YPFB\X64\RELEASE\YPFB.OBJ|C:\USERS\XY6549JI\SOURCE\REPOS\YPFB\YPFB\X64\RELEASE\YPFB_ICON.RES
C:\USERS\XY6549JI\SOURCE\REPOS\YPFB\X64\RELEASE\YPFB.PDB
#Command: "C:\Program Files (x86)\Microsoft Visual Studio\2019\Community\VC\Tools\MSVC\14.22.27905\bin\HostX86\x64\link.exe" /ERRORREPORT:PROMPT @C:\Users\xy6549ji\AppData\Local\Temp\tmp4a07fffb358a4d33b98bb74a665cbd91.rsp
^C:\USERS\XY6549JI\SOURCE\REPOS\YPFB\YPFB\X64\RELEASE\DETAIL.OBJ|C:\USERS\XY6549JI\SOURCE\REPOS\YPFB\YPFB\X64\RELEASE\DETAIL_CONFIRM.OBJ|C:\USERS\XY6549JI\SOURCE\REPOS\YPFB\YPFB\X64\RELEASE\DETAIL_SUMMARY.OBJ|C:\USERS\XY6549JI\SOURCE\REPOS\YPFB\YPFB\X64\RELEASE\DO_CLICK.OBJ|C:\USERS\XY6549JI\SOURCE\REPOS\YPFB\YPFB\X64\RELEASE\END.OBJ|C:\USERS\XY6549JI\SOURCE\REPOS\YPFB\YPFB\X64\RELEASE\FIND.OBJ|C:\USERS\XY6549JI\SOURCE\REPOS\YPFB\YPFB\X64\RELEASE\FOUND.OBJ|C:\USERS\XY6549JI\SOURCE\REPOS\YPFB\YPFB\X64\RELEASE\HOME.OBJ|C:\USERS\XY6549JI\SOURCE\REPOS\YPFB\YPFB\X64\RELEASE\INSERT_TEXT.OBJ|C:\USERS\XY6549JI\SOURCE\REPOS\YPFB\YPFB\X64\RELEASE\LOGIN.OBJ|C:\USERS\XY6549JI\SOURCE\REPOS\YPFB\YPFB\X64\RELEASE\SLEEP.OBJ|C:\USERS\XY6549JI\SOURCE\REPOS\YPFB\YPFB\X64\RELEASE\YPFB.OBJ|C:\USERS\XY6549JI\SOURCE\REPOS\YPFB\YPFB\X64\RELEASE\YPFB_ICON.RES
C:\USERS\XY6549JI\SOURCE\REPOS\YPFB\X64\RELEASE\YPFB.PDB
#Command: "C:\Program Files (x86)\Microsoft Visual Studio\2019\Community\VC\Tools\MSVC\14.22.27905\bin\HostX86\x64\link.exe" /ERRORREPORT:PROMPT @C:\Users\xy6549ji\AppData\Local\Temp\tmp59850075189f48ccb25e1876656aeda0.rsp
^C:\USERS\XY6549JI\SOURCE\REPOS\YPFB\YPFB\X64\RELEASE\DETAIL.OBJ|C:\USERS\XY6549JI\SOURCE\REPOS\YPFB\YPFB\X64\RELEASE\DETAIL_CONFIRM.OBJ|C:\USERS\XY6549JI\SOURCE\REPOS\YPFB\YPFB\X64\RELEASE\DETAIL_SUMMARY.OBJ|C:\USERS\XY6549JI\SOURCE\REPOS\YPFB\YPFB\X64\RELEASE\DO_CLICK.OBJ|C:\USERS\XY6549JI\SOURCE\REPOS\YPFB\YPFB\X64\RELEASE\END.OBJ|C:\USERS\XY6549JI\SOURCE\REPOS\YPFB\YPFB\X64\RELEASE\FIND.OBJ|C:\USERS\XY6549JI\SOURCE\REPOS\YPFB\YPFB\X64\RELEASE\FOUND.OBJ|C:\USERS\XY6549JI\SOURCE\REPOS\YPFB\YPFB\X64\RELEASE\HOME.OBJ|C:\USERS\XY6549JI\SOURCE\REPOS\YPFB\YPFB\X64\RELEASE\INSERT_TEXT.OBJ|C:\USERS\XY6549JI\SOURCE\REPOS\YPFB\YPFB\X64\RELEASE\LOGIN.OBJ|C:\USERS\XY6549JI\SOURCE\REPOS\YPFB\YPFB\X64\RELEASE\SLEEP.OBJ|C:\USERS\XY6549JI\SOURCE\REPOS\YPFB\YPFB\X64\RELEASE\YPFB.OBJ|C:\USERS\XY6549JI\SOURCE\REPOS\YPFB\YPFB\X64\RELEASE\YPFB_ICON.RES
C:\USERS\XY6549JI\SOURCE\REPOS\YPFB\X64\RELEASE\YPFB.PDB
#Command: "C:\Program Files (x86)\Microsoft Visual Studio\2019\Community\VC\Tools\MSVC\14.22.27905\bin\HostX86\x64\link.exe" /ERRORREPORT:PROMPT @C:\Users\xy6549ji\AppData\Local\Temp\tmpfd910d17e4d24dd2845e16ce858c80d1.rsp
^C:\USERS\XY6549JI\SOURCE\REPOS\YPFB\YPFB\X64\RELEASE\DETAIL.OBJ|C:\USERS\XY6549JI\SOURCE\REPOS\YPFB\YPFB\X64\RELEASE\DETAIL_CONFIRM.OBJ|C:\USERS\XY6549JI\SOURCE\REPOS\YPFB\YPFB\X64\RELEASE\DETAIL_SUMMARY.OBJ|C:\USERS\XY6549JI\SOURCE\REPOS\YPFB\YPFB\X64\RELEASE\DO_CLICK.OBJ|C:\USERS\XY6549JI\SOURCE\REPOS\YPFB\YPFB\X64\RELEASE\END.OBJ|C:\USERS\XY6549JI\SOURCE\REPOS\YPFB\YPFB\X64\RELEASE\FIND.OBJ|C:\USERS\XY6549JI\SOURCE\REPOS\YPFB\YPFB\X64\RELEASE\FOUND.OBJ|C:\USERS\XY6549JI\SOURCE\REPOS\YPFB\YPFB\X64\RELEASE\HOME.OBJ|C:\USERS\XY6549JI\SOURCE\REPOS\YPFB\YPFB\X64\RELEASE\INSERT_TEXT.OBJ|C:\USERS\XY6549JI\SOURCE\REPOS\YPFB\YPFB\X64\RELEASE\LOGIN.OBJ|C:\USERS\XY6549JI\SOURCE\REPOS\YPFB\YPFB\X64\RELEASE\SLEEP.OBJ|C:\USERS\XY6549JI\SOURCE\REPOS\YPFB\YPFB\X64\RELEASE\YPFB.OBJ|C:\USERS\XY6549JI\SOURCE\REPOS\YPFB\YPFB\X64\RELEASE\YPFB_ICON.RES
C:\USERS\XY6549JI\SOURCE\REPOS\YPFB\X64\RELEASE\YPFB.PDB
#Command: "C:\Program Files (x86)\Microsoft Visual Studio\2019\Community\VC\Tools\MSVC\14.22.27905\bin\HostX86\x64\link.exe" /ERRORREPORT:PROMPT @C:\Users\xy6549ji\AppData\Local\Temp\tmp9fb9862020764f45b0e3926b786f2971.rsp
^C:\USERS\XY6549JI\SOURCE\REPOS\YPFB\YPFB\X64\RELEASE\DETAIL.OBJ|C:\USERS\XY6549JI\SOURCE\REPOS\YPFB\YPFB\X64\RELEASE\DETAIL_CONFIRM.OBJ|C:\USERS\XY6549JI\SOURCE\REPOS\YPFB\YPFB\X64\RELEASE\DETAIL_SUMMARY.OBJ|C:\USERS\XY6549JI\SOURCE\REPOS\YPFB\YPFB\X64\RELEASE\DO_CLICK.OBJ|C:\USERS\XY6549JI\SOURCE\REPOS\YPFB\YPFB\X64\RELEASE\END.OBJ|C:\USERS\XY6549JI\SOURCE\REPOS\YPFB\YPFB\X64\RELEASE\FIND.OBJ|C:\USERS\XY6549JI\SOURCE\REPOS\YPFB\YPFB\X64\RELEASE\FOUND.OBJ|C:\USERS\XY6549JI\SOURCE\REPOS\YPFB\YPFB\X64\RELEASE\HOME.OBJ|C:\USERS\XY6549JI\SOURCE\REPOS\YPFB\YPFB\X64\RELEASE\INSERT_TEXT.OBJ|C:\USERS\XY6549JI\SOURCE\REPOS\YPFB\YPFB\X64\RELEASE\LOGIN.OBJ|C:\USERS\XY6549JI\SOURCE\REPOS\YPFB\YPFB\X64\RELEASE\SLEEP.OBJ|C:\USERS\XY6549JI\SOURCE\REPOS\YPFB\YPFB\X64\RELEASE\YPFB.OBJ|C:\USERS\XY6549JI\SOURCE\REPOS\YPFB\YPFB\X64\RELEASE\YPFB_ICON.RES
C:\USERS\XY6549JI\SOURCE\REPOS\YPFB\X64\RELEASE\YPFB.PDB
#Command: "C:\Program Files (x86)\Microsoft Visual Studio\2019\Community\VC\Tools\MSVC\14.22.27905\bin\HostX86\x64\link.exe" /ERRORREPORT:PROMPT @C:\Users\xy6549ji\AppData\Local\Temp\tmp8ce6aaa3f70744d2bdb2b34ca69fb33a.rsp
^C:\USERS\XY6549JI\SOURCE\REPOS\YPFB\YPFB\X64\RELEASE\DETAIL.OBJ|C:\USERS\XY6549JI\SOURCE\REPOS\YPFB\YPFB\X64\RELEASE\DETAIL_CONFIRM.OBJ|C:\USERS\XY6549JI\SOURCE\REPOS\YPFB\YPFB\X64\RELEASE\DETAIL_SUMMARY.OBJ|C:\USERS\XY6549JI\SOURCE\REPOS\YPFB\YPFB\X64\RELEASE\DO_CLICK.OBJ|C:\USERS\XY6549JI\SOURCE\REPOS\YPFB\YPFB\X64\RELEASE\END.OBJ|C:\USERS\XY6549JI\SOURCE\REPOS\YPFB\YPFB\X64\RELEASE\FIND.OBJ|C:\USERS\XY6549JI\SOURCE\REPOS\YPFB\YPFB\X64\RELEASE\FOUND.OBJ|C:\USERS\XY6549JI\SOURCE\REPOS\YPFB\YPFB\X64\RELEASE\HOME.OBJ|C:\USERS\XY6549JI\SOURCE\REPOS\YPFB\YPFB\X64\RELEASE\INSERT_TEXT.OBJ|C:\USERS\XY6549JI\SOURCE\REPOS\YPFB\YPFB\X64\RELEASE\LOGIN.OBJ|C:\USERS\XY6549JI\SOURCE\REPOS\YPFB\YPFB\X64\RELEASE\SLEEP.OBJ|C:\USERS\XY6549JI\SOURCE\REPOS\YPFB\YPFB\X64\RELEASE\YPFB.OBJ|C:\USERS\XY6549JI\SOURCE\REPOS\YPFB\YPFB\X64\RELEASE\YPFB_ICON.RES
C:\USERS\XY6549JI\SOURCE\REPOS\YPFB\X64\RELEASE\YPFB.PDB
#Command: "C:\Program Files (x86)\Microsoft Visual Studio\2019\Community\VC\Tools\MSVC\14.22.27905\bin\HostX86\x64\link.exe" /ERRORREPORT:PROMPT @C:\Users\xy6549ji\AppData\Local\Temp\tmpec123c9e55c3421baa4ebe5244fa4b55.rsp
^C:\USERS\XY6549JI\SOURCE\REPOS\YPFB\YPFB\X64\RELEASE\DETAIL.OBJ|C:\USERS\XY6549JI\SOURCE\REPOS\YPFB\YPFB\X64\RELEASE\DETAIL_CONFIRM.OBJ|C:\USERS\XY6549JI\SOURCE\REPOS\YPFB\YPFB\X64\RELEASE\DETAIL_SUMMARY.OBJ|C:\USERS\XY6549JI\SOURCE\REPOS\YPFB\YPFB\X64\RELEASE\DO_CLICK.OBJ|C:\USERS\XY6549JI\SOURCE\REPOS\YPFB\YPFB\X64\RELEASE\END.OBJ|C:\USERS\XY6549JI\SOURCE\REPOS\YPFB\YPFB\X64\RELEASE\FIND.OBJ|C:\USERS\XY6549JI\SOURCE\REPOS\YPFB\YPFB\X64\RELEASE\FOUND.OBJ|C:\USERS\XY6549JI\SOURCE\REPOS\YPFB\YPFB\X64\RELEASE\HOME.OBJ|C:\USERS\XY6549JI\SOURCE\REPOS\YPFB\YPFB\X64\RELEASE\INSERT_TEXT.OBJ|C:\USERS\XY6549JI\SOURCE\REPOS\YPFB\YPFB\X64\RELEASE\LOGIN.OBJ|C:\USERS\XY6549JI\SOURCE\REPOS\YPFB\YPFB\X64\RELEASE\SLEEP.OBJ|C:\USERS\XY6549JI\SOURCE\REPOS\YPFB\YPFB\X64\RELEASE\YPFB.OBJ|C:\USERS\XY6549JI\SOURCE\REPOS\YPFB\YPFB\X64\RELEASE\YPFB_ICON.RES
C:\USERS\XY6549JI\SOURCE\REPOS\YPFB\X64\RELEASE\YPFB.PDB
#Command: "C:\Program Files (x86)\Microsoft Visual Studio\2019\Community\VC\Tools\MSVC\14.22.27905\bin\HostX86\x64\link.exe" /ERRORREPORT:PROMPT @C:\Users\xy6549ji\AppData\Local\Temp\tmp8b2c89b8b2f5451f855177107e68f811.rsp
^C:\USERS\XY6549JI\SOURCE\REPOS\YPFB\YPFB\X64\RELEASE\DETAIL.OBJ|C:\USERS\XY6549JI\SOURCE\REPOS\YPFB\YPFB\X64\RELEASE\DETAIL_CONFIRM.OBJ|C:\USERS\XY6549JI\SOURCE\REPOS\YPFB\YPFB\X64\RELEASE\DETAIL_SUMMARY.OBJ|C:\USERS\XY6549JI\SOURCE\REPOS\YPFB\YPFB\X64\RELEASE\DO_CLICK.OBJ|C:\USERS\XY6549JI\SOURCE\REPOS\YPFB\YPFB\X64\RELEASE\END.OBJ|C:\USERS\XY6549JI\SOURCE\REPOS\YPFB\YPFB\X64\RELEASE\FIND.OBJ|C:\USERS\XY6549JI\SOURCE\REPOS\YPFB\YPFB\X64\RELEASE\FOUND.OBJ|C:\USERS\XY6549JI\SOURCE\REPOS\YPFB\YPFB\X64\RELEASE\HOME.OBJ|C:\USERS\XY6549JI\SOURCE\REPOS\YPFB\YPFB\X64\RELEASE\INSERT_TEXT.OBJ|C:\USERS\XY6549JI\SOURCE\REPOS\YPFB\YPFB\X64\RELEASE\LOGIN.OBJ|C:\USERS\XY6549JI\SOURCE\REPOS\YPFB\YPFB\X64\RELEASE\SLEEP.OBJ|C:\USERS\XY6549JI\SOURCE\REPOS\YPFB\YPFB\X64\RELEASE\YPFB.OBJ|C:\USERS\XY6549JI\SOURCE\REPOS\YPFB\YPFB\X64\RELEASE\YPFB_ICON.RES
C:\USERS\XY6549JI\SOURCE\REPOS\YPFB\X64\RELEASE\YPFB.PDB
#Command: "C:\Program Files (x86)\Microsoft Visual Studio\2019\Community\VC\Tools\MSVC\14.22.27905\bin\HostX86\x64\link.exe" /ERRORREPORT:PROMPT @C:\Users\xy6549ji\AppData\Local\Temp\tmp2397c2285d6243628b5d3bf1187ed508.rsp
^C:\USERS\XY6549JI\SOURCE\REPOS\YPFB\YPFB\X64\RELEASE\DETAIL.OBJ|C:\USERS\XY6549JI\SOURCE\REPOS\YPFB\YPFB\X64\RELEASE\DETAIL_CONFIRM.OBJ|C:\USERS\XY6549JI\SOURCE\REPOS\YPFB\YPFB\X64\RELEASE\DETAIL_SUMMARY.OBJ|C:\USERS\XY6549JI\SOURCE\REPOS\YPFB\YPFB\X64\RELEASE\DO_CLICK.OBJ|C:\USERS\XY6549JI\SOURCE\REPOS\YPFB\YPFB\X64\RELEASE\END.OBJ|C:\USERS\XY6549JI\SOURCE\REPOS\YPFB\YPFB\X64\RELEASE\FIND.OBJ|C:\USERS\XY6549JI\SOURCE\REPOS\YPFB\YPFB\X64\RELEASE\FOUND.OBJ|C:\USERS\XY6549JI\SOURCE\REPOS\YPFB\YPFB\X64\RELEASE\HOME.OBJ|C:\USERS\XY6549JI\SOURCE\REPOS\YPFB\YPFB\X64\RELEASE\INSERT_TEXT.OBJ|C:\USERS\XY6549JI\SOURCE\REPOS\YPFB\YPFB\X64\RELEASE\LOGIN.OBJ|C:\USERS\XY6549JI\SOURCE\REPOS\YPFB\YPFB\X64\RELEASE\SLEEP.OBJ|C:\USERS\XY6549JI\SOURCE\REPOS\YPFB\YPFB\X64\RELEASE\YPFB.OBJ|C:\USERS\XY6549JI\SOURCE\REPOS\YPFB\YPFB\X64\RELEASE\YPFB_ICON.RES
C:\USERS\XY6549JI\SOURCE\REPOS\YPFB\X64\RELEASE\YPFB.PDB
#Command: "C:\Program Files (x86)\Microsoft Visual Studio\2019\Community\VC\Tools\MSVC\14.22.27905\bin\HostX86\x64\link.exe" /ERRORREPORT:PROMPT @C:\Users\xy6549ji\AppData\Local\Temp\tmpc41e0af55f0944d3b963728d632d6a95.rsp
^C:\USERS\XY6549JI\SOURCE\REPOS\YPFB\YPFB\X64\RELEASE\DETAIL.OBJ|C:\USERS\XY6549JI\SOURCE\REPOS\YPFB\YPFB\X64\RELEASE\DETAIL_CONFIRM.OBJ|C:\USERS\XY6549JI\SOURCE\REPOS\YPFB\YPFB\X64\RELEASE\DETAIL_SUMMARY.OBJ|C:\USERS\XY6549JI\SOURCE\REPOS\YPFB\YPFB\X64\RELEASE\DO_CLICK.OBJ|C:\USERS\XY6549JI\SOURCE\REPOS\YPFB\YPFB\X64\RELEASE\END.OBJ|C:\USERS\XY6549JI\SOURCE\REPOS\YPFB\YPFB\X64\RELEASE\FIND.OBJ|C:\USERS\XY6549JI\SOURCE\REPOS\YPFB\YPFB\X64\RELEASE\FOUND.OBJ|C:\USERS\XY6549JI\SOURCE\REPOS\YPFB\YPFB\X64\RELEASE\HOME.OBJ|C:\USERS\XY6549JI\SOURCE\REPOS\YPFB\YPFB\X64\RELEASE\INSERT_TEXT.OBJ|C:\USERS\XY6549JI\SOURCE\REPOS\YPFB\YPFB\X64\RELEASE\LOGIN.OBJ|C:\USERS\XY6549JI\SOURCE\REPOS\YPFB\YPFB\X64\RELEASE\SLEEP.OBJ|C:\USERS\XY6549JI\SOURCE\REPOS\YPFB\YPFB\X64\RELEASE\YPFB.OBJ|C:\USERS\XY6549JI\SOURCE\REPOS\YPFB\YPFB\X64\RELEASE\YPFB_ICON.RES
C:\USERS\XY6549JI\SOURCE\REPOS\YPFB\X64\RELEASE\YPFB.PDB
#Command: "C:\Program Files (x86)\Microsoft Visual Studio\2019\Community\VC\Tools\MSVC\14.22.27905\bin\HostX86\x64\link.exe" /ERRORREPORT:PROMPT @C:\Users\xy6549ji\AppData\Local\Temp\tmpbc940cef2bfa44cd8e69fd0a83d2b021.rsp
^C:\USERS\XY6549JI\SOURCE\REPOS\YPFB\YPFB\X64\RELEASE\DETAIL.OBJ|C:\USERS\XY6549JI\SOURCE\REPOS\YPFB\YPFB\X64\RELEASE\DETAIL_CONFIRM.OBJ|C:\USERS\XY6549JI\SOURCE\REPOS\YPFB\YPFB\X64\RELEASE\DETAIL_SUMMARY.OBJ|C:\USERS\XY6549JI\SOURCE\REPOS\YPFB\YPFB\X64\RELEASE\DO_CLICK.OBJ|C:\USERS\XY6549JI\SOURCE\REPOS\YPFB\YPFB\X64\RELEASE\END.OBJ|C:\USERS\XY6549JI\SOURCE\REPOS\YPFB\YPFB\X64\RELEASE\FIND.OBJ|C:\USERS\XY6549JI\SOURCE\REPOS\YPFB\YPFB\X64\RELEASE\FOUND.OBJ|C:\USERS\XY6549JI\SOURCE\REPOS\YPFB\YPFB\X64\RELEASE\HOME.OBJ|C:\USERS\XY6549JI\SOURCE\REPOS\YPFB\YPFB\X64\RELEASE\INSERT_TEXT.OBJ|C:\USERS\XY6549JI\SOURCE\REPOS\YPFB\YPFB\X64\RELEASE\LOGIN.OBJ|C:\USERS\XY6549JI\SOURCE\REPOS\YPFB\YPFB\X64\RELEASE\SLEEP.OBJ|C:\USERS\XY6549JI\SOURCE\REPOS\YPFB\YPFB\X64\RELEASE\YPFB.OBJ|C:\USERS\XY6549JI\SOURCE\REPOS\YPFB\YPFB\X64\RELEASE\YPFB_ICON.RES
C:\USERS\XY6549JI\SOURCE\REPOS\YPFB\X64\RELEASE\YPFB.PDB
#Command: "C:\Program Files (x86)\Microsoft Visual Studio\2019\Community\VC\Tools\MSVC\14.22.27905\bin\HostX86\x64\link.exe" /ERRORREPORT:PROMPT @C:\Users\xy6549ji\AppData\Local\Temp\tmp6e46c879bbcd424393c31340c2fecfd1.rsp
^C:\USERS\XY6549JI\SOURCE\REPOS\YPFB\YPFB\X64\RELEASE\DETAIL.OBJ|C:\USERS\XY6549JI\SOURCE\REPOS\YPFB\YPFB\X64\RELEASE\DETAIL_CONFIRM.OBJ|C:\USERS\XY6549JI\SOURCE\REPOS\YPFB\YPFB\X64\RELEASE\DETAIL_SUMMARY.OBJ|C:\USERS\XY6549JI\SOURCE\REPOS\YPFB\YPFB\X64\RELEASE\DO_CLICK.OBJ|C:\USERS\XY6549JI\SOURCE\REPOS\YPFB\YPFB\X64\RELEASE\END.OBJ|C:\USERS\XY6549JI\SOURCE\REPOS\YPFB\YPFB\X64\RELEASE\FIND.OBJ|C:\USERS\XY6549JI\SOURCE\REPOS\YPFB\YPFB\X64\RELEASE\FOUND.OBJ|C:\USERS\XY6549JI\SOURCE\REPOS\YPFB\YPFB\X64\RELEASE\HOME.OBJ|C:\USERS\XY6549JI\SOURCE\REPOS\YPFB\YPFB\X64\RELEASE\INSERT_TEXT.OBJ|C:\USERS\XY6549JI\SOURCE\REPOS\YPFB\YPFB\X64\RELEASE\LOGIN.OBJ|C:\USERS\XY6549JI\SOURCE\REPOS\YPFB\YPFB\X64\RELEASE\SLEEP.OBJ|C:\USERS\XY6549JI\SOURCE\REPOS\YPFB\YPFB\X64\RELEASE\YPFB.OBJ|C:\USERS\XY6549JI\SOURCE\REPOS\YPFB\YPFB\X64\RELEASE\YPFB_ICON.RES
C:\USERS\XY6549JI\SOURCE\REPOS\YPFB\X64\RELEASE\YPFB.PDB
#Command: "C:\Program Files (x86)\Microsoft Visual Studio\2019\Community\VC\Tools\MSVC\14.22.27905\bin\HostX86\x64\link.exe" /ERRORREPORT:PROMPT @C:\Users\xy6549ji\AppData\Local\Temp\tmpc42ece7be77d48a8965bb9ba1a3bf6ed.rsp
^C:\USERS\XY6549JI\SOURCE\REPOS\YPFB\YPFB\X64\RELEASE\DETAIL.OBJ|C:\USERS\XY6549JI\SOURCE\REPOS\YPFB\YPFB\X64\RELEASE\DETAIL_CONFIRM.OBJ|C:\USERS\XY6549JI\SOURCE\REPOS\YPFB\YPFB\X64\RELEASE\DETAIL_SUMMARY.OBJ|C:\USERS\XY6549JI\SOURCE\REPOS\YPFB\YPFB\X64\RELEASE\DO_CLICK.OBJ|C:\USERS\XY6549JI\SOURCE\REPOS\YPFB\YPFB\X64\RELEASE\END.OBJ|C:\USERS\XY6549JI\SOURCE\REPOS\YPFB\YPFB\X64\RELEASE\FIND.OBJ|C:\USERS\XY6549JI\SOURCE\REPOS\YPFB\YPFB\X64\RELEASE\FOUND.OBJ|C:\USERS\XY6549JI\SOURCE\REPOS\YPFB\YPFB\X64\RELEASE\HOME.OBJ|C:\USERS\XY6549JI\SOURCE\REPOS\YPFB\YPFB\X64\RELEASE\INSERT_TEXT.OBJ|C:\USERS\XY6549JI\SOURCE\REPOS\YPFB\YPFB\X64\RELEASE\LOGIN.OBJ|C:\USERS\XY6549JI\SOURCE\REPOS\YPFB\YPFB\X64\RELEASE\SLEEP.OBJ|C:\USERS\XY6549JI\SOURCE\REPOS\YPFB\YPFB\X64\RELEASE\YPFB.OBJ|C:\USERS\XY6549JI\SOURCE\REPOS\YPFB\YPFB\X64\RELEASE\YPFB_ICON.RES
C:\USERS\XY6549JI\SOURCE\REPOS\YPFB\X64\RELEASE\YPFB.PDB
#Command: "C:\Program Files (x86)\Microsoft Visual Studio\2019\Community\VC\Tools\MSVC\14.22.27905\bin\HostX86\x64\link.exe" /ERRORREPORT:PROMPT @C:\Users\xy6549ji\AppData\Local\Temp\tmp6807b1d5e0bc4996843eb5107fd714d5.rsp
^C:\USERS\XY6549JI\SOURCE\REPOS\YPFB\YPFB\X64\RELEASE\DETAIL.OBJ|C:\USERS\XY6549JI\SOURCE\REPOS\YPFB\YPFB\X64\RELEASE\DETAIL_CONFIRM.OBJ|C:\USERS\XY6549JI\SOURCE\REPOS\YPFB\YPFB\X64\RELEASE\DETAIL_SUMMARY.OBJ|C:\USERS\XY6549JI\SOURCE\REPOS\YPFB\YPFB\X64\RELEASE\DO_CLICK.OBJ|C:\USERS\XY6549JI\SOURCE\REPOS\YPFB\YPFB\X64\RELEASE\END.OBJ|C:\USERS\XY6549JI\SOURCE\REPOS\YPFB\YPFB\X64\RELEASE\FIND.OBJ|C:\USERS\XY6549JI\SOURCE\REPOS\YPFB\YPFB\X64\RELEASE\FOUND.OBJ|C:\USERS\XY6549JI\SOURCE\REPOS\YPFB\YPFB\X64\RELEASE\HOME.OBJ|C:\USERS\XY6549JI\SOURCE\REPOS\YPFB\YPFB\X64\RELEASE\INSERT_TEXT.OBJ|C:\USERS\XY6549JI\SOURCE\REPOS\YPFB\YPFB\X64\RELEASE\LOGIN.OBJ|C:\USERS\XY6549JI\SOURCE\REPOS\YPFB\YPFB\X64\RELEASE\SLEEP.OBJ|C:\USERS\XY6549JI\SOURCE\REPOS\YPFB\YPFB\X64\RELEASE\YPFB.OBJ|C:\USERS\XY6549JI\SOURCE\REPOS\YPFB\YPFB\X64\RELEASE\YPFB_ICON.RES
C:\USERS\XY6549JI\SOURCE\REPOS\YPFB\X64\RELEASE\YPFB.PDB
#Command: "C:\Program Files (x86)\Microsoft Visual Studio\2019\Community\VC\Tools\MSVC\14.22.27905\bin\HostX86\x64\link.exe" /ERRORREPORT:PROMPT @C:\Users\xy6549ji\AppData\Local\Temp\tmp3faeb3b59e6c495786505f7d1c3be2af.rsp
^C:\USERS\XY6549JI\SOURCE\REPOS\YPFB\YPFB\X64\RELEASE\DETAIL.OBJ|C:\USERS\XY6549JI\SOURCE\REPOS\YPFB\YPFB\X64\RELEASE\DETAIL_CONFIRM.OBJ|C:\USERS\XY6549JI\SOURCE\REPOS\YPFB\YPFB\X64\RELEASE\DETAIL_SUMMARY.OBJ|C:\USERS\XY6549JI\SOURCE\REPOS\YPFB\YPFB\X64\RELEASE\DO_CLICK.OBJ|C:\USERS\XY6549JI\SOURCE\REPOS\YPFB\YPFB\X64\RELEASE\END.OBJ|C:\USERS\XY6549JI\SOURCE\REPOS\YPFB\YPFB\X64\RELEASE\FIND.OBJ|C:\USERS\XY6549JI\SOURCE\REPOS\YPFB\YPFB\X64\RELEASE\FOUND.OBJ|C:\USERS\XY6549JI\SOURCE\REPOS\YPFB\YPFB\X64\RELEASE\HOME.OBJ|C:\USERS\XY6549JI\SOURCE\REPOS\YPFB\YPFB\X64\RELEASE\INSERT_TEXT.OBJ|C:\USERS\XY6549JI\SOURCE\REPOS\YPFB\YPFB\X64\RELEASE\LOGIN.OBJ|C:\USERS\XY6549JI\SOURCE\REPOS\YPFB\YPFB\X64\RELEASE\SLEEP.OBJ|C:\USERS\XY6549JI\SOURCE\REPOS\YPFB\YPFB\X64\RELEASE\YPFB.OBJ|C:\USERS\XY6549JI\SOURCE\REPOS\YPFB\YPFB\X64\RELEASE\YPFB_ICON.RES
C:\USERS\XY6549JI\SOURCE\REPOS\YPFB\X64\RELEASE\YPFB.PDB
#Command: "C:\Program Files (x86)\Microsoft Visual Studio\2019\Community\VC\Tools\MSVC\14.22.27905\bin\HostX86\x64\link.exe" /ERRORREPORT:PROMPT @C:\Users\xy6549ji\AppData\Local\Temp\tmpdf39eab4be824b848cc321ccc3bcb0b7.rsp
^C:\USERS\XY6549JI\SOURCE\REPOS\YPFB\YPFB\X64\RELEASE\DETAIL.OBJ|C:\USERS\XY6549JI\SOURCE\REPOS\YPFB\YPFB\X64\RELEASE\DETAIL_CONFIRM.OBJ|C:\USERS\XY6549JI\SOURCE\REPOS\YPFB\YPFB\X64\RELEASE\DETAIL_SUMMARY.OBJ|C:\USERS\XY6549JI\SOURCE\REPOS\YPFB\YPFB\X64\RELEASE\DO_CLICK.OBJ|C:\USERS\XY6549JI\SOURCE\REPOS\YPFB\YPFB\X64\RELEASE\END.OBJ|C:\USERS\XY6549JI\SOURCE\REPOS\YPFB\YPFB\X64\RELEASE\FIND.OBJ|C:\USERS\XY6549JI\SOURCE\REPOS\YPFB\YPFB\X64\RELEASE\FOUND.OBJ|C:\USERS\XY6549JI\SOURCE\REPOS\YPFB\YPFB\X64\RELEASE\HOME.OBJ|C:\USERS\XY6549JI\SOURCE\REPOS\YPFB\YPFB\X64\RELEASE\INSERT_TEXT.OBJ|C:\USERS\XY6549JI\SOURCE\REPOS\YPFB\YPFB\X64\RELEASE\LOGIN.OBJ|C:\USERS\XY6549JI\SOURCE\REPOS\YPFB\YPFB\X64\RELEASE\SLEEP.OBJ|C:\USERS\XY6549JI\SOURCE\REPOS\YPFB\YPFB\X64\RELEASE\YPFB.OBJ|C:\USERS\XY6549JI\SOURCE\REPOS\YPFB\YPFB\X64\RELEASE\YPFB_ICON.RES
C:\USERS\XY6549JI\SOURCE\REPOS\YPFB\X64\RELEASE\YPFB.PDB
#Command: "C:\Program Files (x86)\Microsoft Visual Studio\2019\Community\VC\Tools\MSVC\14.22.27905\bin\HostX86\x64\link.exe" /ERRORREPORT:PROMPT @C:\Users\xy6549ji\AppData\Local\Temp\tmp9362c1acf3f44aab9f8a8f29e258e34b.rsp
^C:\USERS\XY6549JI\SOURCE\REPOS\YPFB\YPFB\X64\RELEASE\DETAIL.OBJ|C:\USERS\XY6549JI\SOURCE\REPOS\YPFB\YPFB\X64\RELEASE\DETAIL_CONFIRM.OBJ|C:\USERS\XY6549JI\SOURCE\REPOS\YPFB\YPFB\X64\RELEASE\DETAIL_SUMMARY.OBJ|C:\USERS\XY6549JI\SOURCE\REPOS\YPFB\YPFB\X64\RELEASE\DO_CLICK.OBJ|C:\USERS\XY6549JI\SOURCE\REPOS\YPFB\YPFB\X64\RELEASE\END.OBJ|C:\USERS\XY6549JI\SOURCE\REPOS\YPFB\YPFB\X64\RELEASE\FIND.OBJ|C:\USERS\XY6549JI\SOURCE\REPOS\YPFB\YPFB\X64\RELEASE\FOUND.OBJ|C:\USERS\XY6549JI\SOURCE\REPOS\YPFB\YPFB\X64\RELEASE\HOME.OBJ|C:\USERS\XY6549JI\SOURCE\REPOS\YPFB\YPFB\X64\RELEASE\INSERT_TEXT.OBJ|C:\USERS\XY6549JI\SOURCE\REPOS\YPFB\YPFB\X64\RELEASE\LOGIN.OBJ|C:\USERS\XY6549JI\SOURCE\REPOS\YPFB\YPFB\X64\RELEASE\SLEEP.OBJ|C:\USERS\XY6549JI\SOURCE\REPOS\YPFB\YPFB\X64\RELEASE\YPFB.OBJ|C:\USERS\XY6549JI\SOURCE\REPOS\YPFB\YPFB\X64\RELEASE\YPFB_ICON.RES
C:\USERS\XY6549JI\SOURCE\REPOS\YPFB\X64\RELEASE\YPFB.PDB
#Command: "C:\Program Files (x86)\Microsoft Visual Studio\2019\Community\VC\Tools\MSVC\14.22.27905\bin\HostX86\x64\link.exe" /ERRORREPORT:PROMPT @C:\Users\xy6549ji\AppData\Local\Temp\tmpc95d36877d2b4ffdb34340f2b9bc557b.rsp
^C:\USERS\XY6549JI\SOURCE\REPOS\YPFB\YPFB\X64\RELEASE\DETAIL.OBJ|C:\USERS\XY6549JI\SOURCE\REPOS\YPFB\YPFB\X64\RELEASE\DETAIL_CONFIRM.OBJ|C:\USERS\XY6549JI\SOURCE\REPOS\YPFB\YPFB\X64\RELEASE\DETAIL_SUMMARY.OBJ|C:\USERS\XY6549JI\SOURCE\REPOS\YPFB\YPFB\X64\RELEASE\DO_CLICK.OBJ|C:\USERS\XY6549JI\SOURCE\REPOS\YPFB\YPFB\X64\RELEASE\END.OBJ|C:\USERS\XY6549JI\SOURCE\REPOS\YPFB\YPFB\X64\RELEASE\FIND.OBJ|C:\USERS\XY6549JI\SOURCE\REPOS\YPFB\YPFB\X64\RELEASE\FOUND.OBJ|C:\USERS\XY6549JI\SOURCE\REPOS\YPFB\YPFB\X64\RELEASE\HOME.OBJ|C:\USERS\XY6549JI\SOURCE\REPOS\YPFB\YPFB\X64\RELEASE\INSERT_TEXT.OBJ|C:\USERS\XY6549JI\SOURCE\REPOS\YPFB\YPFB\X64\RELEASE\LOGIN.OBJ|C:\USERS\XY6549JI\SOURCE\REPOS\YPFB\YPFB\X64\RELEASE\SLEEP.OBJ|C:\USERS\XY6549JI\SOURCE\REPOS\YPFB\YPFB\X64\RELEASE\YPFB.OBJ|C:\USERS\XY6549JI\SOURCE\REPOS\YPFB\YPFB\X64\RELEASE\YPFB_ICON.RES
C:\USERS\XY6549JI\SOURCE\REPOS\YPFB\X64\RELEASE\YPFB.PDB
#Command: "C:\Program Files (x86)\Microsoft Visual Studio\2019\Community\VC\Tools\MSVC\14.22.27905\bin\HostX86\x64\link.exe" /ERRORREPORT:PROMPT @C:\Users\xy6549ji\AppData\Local\Temp\tmp63ef123f8b8a4236862bf9133f0f4936.rsp
^C:\USERS\XY6549JI\SOURCE\REPOS\YPFB\YPFB\X64\RELEASE\DETAIL.OBJ|C:\USERS\XY6549JI\SOURCE\REPOS\YPFB\YPFB\X64\RELEASE\DETAIL_CONFIRM.OBJ|C:\USERS\XY6549JI\SOURCE\REPOS\YPFB\YPFB\X64\RELEASE\DETAIL_SUMMARY.OBJ|C:\USERS\XY6549JI\SOURCE\REPOS\YPFB\YPFB\X64\RELEASE\DO_CLICK.OBJ|C:\USERS\XY6549JI\SOURCE\REPOS\YPFB\YPFB\X64\RELEASE\END.OBJ|C:\USERS\XY6549JI\SOURCE\REPOS\YPFB\YPFB\X64\RELEASE\FIND.OBJ|C:\USERS\XY6549JI\SOURCE\REPOS\YPFB\YPFB\X64\RELEASE\FOUND.OBJ|C:\USERS\XY6549JI\SOURCE\REPOS\YPFB\YPFB\X64\RELEASE\HOME.OBJ|C:\USERS\XY6549JI\SOURCE\REPOS\YPFB\YPFB\X64\RELEASE\INSERT_TEXT.OBJ|C:\USERS\XY6549JI\SOURCE\REPOS\YPFB\YPFB\X64\RELEASE\LOGIN.OBJ|C:\USERS\XY6549JI\SOURCE\REPOS\YPFB\YPFB\X64\RELEASE\SLEEP.OBJ|C:\USERS\XY6549JI\SOURCE\REPOS\YPFB\YPFB\X64\RELEASE\YPFB.OBJ|C:\USERS\XY6549JI\SOURCE\REPOS\YPFB\YPFB\X64\RELEASE\YPFB_ICON.RES
C:\USERS\XY6549JI\SOURCE\REPOS\YPFB\X64\RELEASE\YPFB.PDB
#Command: "C:\Program Files (x86)\Microsoft Visual Studio\2019\Community\VC\Tools\MSVC\14.22.27905\bin\HostX86\x64\link.exe" /ERRORREPORT:PROMPT @C:\Users\xy6549ji\AppData\Local\Temp\tmpf519a3dd016d49d3b669a2b1e9d9419a.rsp
^C:\USERS\XY6549JI\SOURCE\REPOS\YPFB\YPFB\X64\RELEASE\DETAIL.OBJ|C:\USERS\XY6549JI\SOURCE\REPOS\YPFB\YPFB\X64\RELEASE\DETAIL_CONFIRM.OBJ|C:\USERS\XY6549JI\SOURCE\REPOS\YPFB\YPFB\X64\RELEASE\DETAIL_SUMMARY.OBJ|C:\USERS\XY6549JI\SOURCE\REPOS\YPFB\YPFB\X64\RELEASE\DO_CLICK.OBJ|C:\USERS\XY6549JI\SOURCE\REPOS\YPFB\YPFB\X64\RELEASE\END.OBJ|C:\USERS\XY6549JI\SOURCE\REPOS\YPFB\YPFB\X64\RELEASE\FIND.OBJ|C:\USERS\XY6549JI\SOURCE\REPOS\YPFB\YPFB\X64\RELEASE\FOUND.OBJ|C:\USERS\XY6549JI\SOURCE\REPOS\YPFB\YPFB\X64\RELEASE\HOME.OBJ|C:\USERS\XY6549JI\SOURCE\REPOS\YPFB\YPFB\X64\RELEASE\INSERT_TEXT.OBJ|C:\USERS\XY6549JI\SOURCE\REPOS\YPFB\YPFB\X64\RELEASE\LOGIN.OBJ|C:\USERS\XY6549JI\SOURCE\REPOS\YPFB\YPFB\X64\RELEASE\SLEEP.OBJ|C:\USERS\XY6549JI\SOURCE\REPOS\YPFB\YPFB\X64\RELEASE\YPFB.OBJ|C:\USERS\XY6549JI\SOURCE\REPOS\YPFB\YPFB\X64\RELEASE\YPFB_ICON.RES
C:\USERS\XY6549JI\SOURCE\REPOS\YPFB\X64\RELEASE\YPFB.PDB
#Command: "C:\Program Files (x86)\Microsoft Visual Studio\2019\Community\VC\Tools\MSVC\14.22.27905\bin\HostX86\x64\link.exe" /ERRORREPORT:PROMPT @C:\Users\xy6549ji\AppData\Local\Temp\tmp379b3ab0d3484559b199a961055df671.rsp
^C:\USERS\XY6549JI\SOURCE\REPOS\YPFB\YPFB\X64\RELEASE\DETAIL.OBJ|C:\USERS\XY6549JI\SOURCE\REPOS\YPFB\YPFB\X64\RELEASE\DETAIL_CONFIRM.OBJ|C:\USERS\XY6549JI\SOURCE\REPOS\YPFB\YPFB\X64\RELEASE\DETAIL_SUMMARY.OBJ|C:\USERS\XY6549JI\SOURCE\REPOS\YPFB\YPFB\X64\RELEASE\DO_CLICK.OBJ|C:\USERS\XY6549JI\SOURCE\REPOS\YPFB\YPFB\X64\RELEASE\END.OBJ|C:\USERS\XY6549JI\SOURCE\REPOS\YPFB\YPFB\X64\RELEASE\FIND.OBJ|C:\USERS\XY6549JI\SOURCE\REPOS\YPFB\YPFB\X64\RELEASE\FOUND.OBJ|C:\USERS\XY6549JI\SOURCE\REPOS\YPFB\YPFB\X64\RELEASE\HOME.OBJ|C:\USERS\XY6549JI\SOURCE\REPOS\YPFB\YPFB\X64\RELEASE\INSERT_TEXT.OBJ|C:\USERS\XY6549JI\SOURCE\REPOS\YPFB\YPFB\X64\RELEASE\LOGIN.OBJ|C:\USERS\XY6549JI\SOURCE\REPOS\YPFB\YPFB\X64\RELEASE\SLEEP.OBJ|C:\USERS\XY6549JI\SOURCE\REPOS\YPFB\YPFB\X64\RELEASE\YPFB.OBJ|C:\USERS\XY6549JI\SOURCE\REPOS\YPFB\YPFB\X64\RELEASE\YPFB_ICON.RES
C:\USERS\XY6549JI\SOURCE\REPOS\YPFB\X64\RELEASE\YPFB.PDB
#Command: "C:\Program Files (x86)\Microsoft Visual Studio\2019\Community\VC\Tools\MSVC\14.22.27905\bin\HostX86\x64\link.exe" /ERRORREPORT:PROMPT @C:\Users\xy6549ji\AppData\Local\Temp\tmp655287b6bb4c4526b526f2268e6384b4.rsp
^C:\USERS\XY6549JI\SOURCE\REPOS\YPFB\YPFB\X64\RELEASE\DETAIL.OBJ|C:\USERS\XY6549JI\SOURCE\REPOS\YPFB\YPFB\X64\RELEASE\DETAIL_CONFIRM.OBJ|C:\USERS\XY6549JI\SOURCE\REPOS\YPFB\YPFB\X64\RELEASE\DETAIL_SUMMARY.OBJ|C:\USERS\XY6549JI\SOURCE\REPOS\YPFB\YPFB\X64\RELEASE\DO_CLICK.OBJ|C:\USERS\XY6549JI\SOURCE\REPOS\YPFB\YPFB\X64\RELEASE\END.OBJ|C:\USERS\XY6549JI\SOURCE\REPOS\YPFB\YPFB\X64\RELEASE\FIND.OBJ|C:\USERS\XY6549JI\SOURCE\REPOS\YPFB\YPFB\X64\RELEASE\FOUND.OBJ|C:\USERS\XY6549JI\SOURCE\REPOS\YPFB\YPFB\X64\RELEASE\HOME.OBJ|C:\USERS\XY6549JI\SOURCE\REPOS\YPFB\YPFB\X64\RELEASE\INSERT_TEXT.OBJ|C:\USERS\XY6549JI\SOURCE\REPOS\YPFB\YPFB\X64\RELEASE\LOGIN.OBJ|C:\USERS\XY6549JI\SOURCE\REPOS\YPFB\YPFB\X64\RELEASE\SLEEP.OBJ|C:\USERS\XY6549JI\SOURCE\REPOS\YPFB\YPFB\X64\RELEASE\YPFB.OBJ|C:\USERS\XY6549JI\SOURCE\REPOS\YPFB\YPFB\X64\RELEASE\YPFB_ICON.RES
C:\USERS\XY6549JI\SOURCE\REPOS\YPFB\X64\RELEASE\YPFB.PDB
#Command: "C:\Program Files (x86)\Microsoft Visual Studio\2019\Community\VC\Tools\MSVC\14.22.27905\bin\HostX86\x64\link.exe" /ERRORREPORT:PROMPT @C:\Users\xy6549ji\AppData\Local\Temp\tmp09c4012fab424271b3dba75c2e5b856a.rsp
^C:\USERS\XY6549JI\SOURCE\REPOS\YPFB\YPFB\X64\RELEASE\DETAIL.OBJ|C:\USERS\XY6549JI\SOURCE\REPOS\YPFB\YPFB\X64\RELEASE\DETAIL_CONFIRM.OBJ|C:\USERS\XY6549JI\SOURCE\REPOS\YPFB\YPFB\X64\RELEASE\DETAIL_SUMMARY.OBJ|C:\USERS\XY6549JI\SOURCE\REPOS\YPFB\YPFB\X64\RELEASE\DO_CLICK.OBJ|C:\USERS\XY6549JI\SOURCE\REPOS\YPFB\YPFB\X64\RELEASE\END.OBJ|C:\USERS\XY6549JI\SOURCE\REPOS\YPFB\YPFB\X64\RELEASE\FIND.OBJ|C:\USERS\XY6549JI\SOURCE\REPOS\YPFB\YPFB\X64\RELEASE\FOUND.OBJ|C:\USERS\XY6549JI\SOURCE\REPOS\YPFB\YPFB\X64\RELEASE\HOME.OBJ|C:\USERS\XY6549JI\SOURCE\REPOS\YPFB\YPFB\X64\RELEASE\INSERT_TEXT.OBJ|C:\USERS\XY6549JI\SOURCE\REPOS\YPFB\YPFB\X64\RELEASE\LOGIN.OBJ|C:\USERS\XY6549JI\SOURCE\REPOS\YPFB\YPFB\X64\RELEASE\SLEEP.OBJ|C:\USERS\XY6549JI\SOURCE\REPOS\YPFB\YPFB\X64\RELEASE\YPFB.OBJ|C:\USERS\XY6549JI\SOURCE\REPOS\YPFB\YPFB\X64\RELEASE\YPFB_ICON.RES
C:\USERS\XY6549JI\SOURCE\REPOS\YPFB\X64\RELEASE\YPFB.PDB
#Command: "C:\Program Files (x86)\Microsoft Visual Studio\2019\Community\VC\Tools\MSVC\14.22.27905\bin\HostX86\x64\link.exe" /ERRORREPORT:PROMPT @C:\Users\xy6549ji\AppData\Local\Temp\tmp3c987bacd3be470d90b6dcbf5920e5d7.rsp
^C:\USERS\XY6549JI\SOURCE\REPOS\YPFB\YPFB\X64\RELEASE\DETAIL.OBJ|C:\USERS\XY6549JI\SOURCE\REPOS\YPFB\YPFB\X64\RELEASE\DETAIL_CONFIRM.OBJ|C:\USERS\XY6549JI\SOURCE\REPOS\YPFB\YPFB\X64\RELEASE\DETAIL_SUMMARY.OBJ|C:\USERS\XY6549JI\SOURCE\REPOS\YPFB\YPFB\X64\RELEASE\DO_CLICK.OBJ|C:\USERS\XY6549JI\SOURCE\REPOS\YPFB\YPFB\X64\RELEASE\END.OBJ|C:\USERS\XY6549JI\SOURCE\REPOS\YPFB\YPFB\X64\RELEASE\FIND.OBJ|C:\USERS\XY6549JI\SOURCE\REPOS\YPFB\YPFB\X64\RELEASE\FOUND.OBJ|C:\USERS\XY6549JI\SOURCE\REPOS\YPFB\YPFB\X64\RELEASE\HOME.OBJ|C:\USERS\XY6549JI\SOURCE\REPOS\YPFB\YPFB\X64\RELEASE\INSERT_TEXT.OBJ|C:\USERS\XY6549JI\SOURCE\REPOS\YPFB\YPFB\X64\RELEASE\LOGIN.OBJ|C:\USERS\XY6549JI\SOURCE\REPOS\YPFB\YPFB\X64\RELEASE\SLEEP.OBJ|C:\USERS\XY6549JI\SOURCE\REPOS\YPFB\YPFB\X64\RELEASE\YPFB.OBJ|C:\USERS\XY6549JI\SOURCE\REPOS\YPFB\YPFB\X64\RELEASE\YPFB_ICON.RES
C:\USERS\XY6549JI\SOURCE\REPOS\YPFB\X64\RELEASE\YPFB.PDB
#Command: "C:\Program Files (x86)\Microsoft Visual Studio\2019\Community\VC\Tools\MSVC\14.22.27905\bin\HostX86\x64\link.exe" /ERRORREPORT:PROMPT @C:\Users\xy6549ji\AppData\Local\Temp\tmp138f8c19dded46f3ae47971c8e0ef31c.rsp
^C:\USERS\XY6549JI\SOURCE\REPOS\YPFB\YPFB\X64\RELEASE\DETAIL.OBJ|C:\USERS\XY6549JI\SOURCE\REPOS\YPFB\YPFB\X64\RELEASE\DETAIL_CONFIRM.OBJ|C:\USERS\XY6549JI\SOURCE\REPOS\YPFB\YPFB\X64\RELEASE\DETAIL_SUMMARY.OBJ|C:\USERS\XY6549JI\SOURCE\REPOS\YPFB\YPFB\X64\RELEASE\DO_CLICK.OBJ|C:\USERS\XY6549JI\SOURCE\REPOS\YPFB\YPFB\X64\RELEASE\END.OBJ|C:\USERS\XY6549JI\SOURCE\REPOS\YPFB\YPFB\X64\RELEASE\FIND.OBJ|C:\USERS\XY6549JI\SOURCE\REPOS\YPFB\YPFB\X64\RELEASE\FOUND.OBJ|C:\USERS\XY6549JI\SOURCE\REPOS\YPFB\YPFB\X64\RELEASE\HOME.OBJ|C:\USERS\XY6549JI\SOURCE\REPOS\YPFB\YPFB\X64\RELEASE\INSERT_TEXT.OBJ|C:\USERS\XY6549JI\SOURCE\REPOS\YPFB\YPFB\X64\RELEASE\LOGIN.OBJ|C:\USERS\XY6549JI\SOURCE\REPOS\YPFB\YPFB\X64\RELEASE\SLEEP.OBJ|C:\USERS\XY6549JI\SOURCE\REPOS\YPFB\YPFB\X64\RELEASE\YPFB.OBJ|C:\USERS\XY6549JI\SOURCE\REPOS\YPFB\YPFB\X64\RELEASE\YPFB_ICON.RES
C:\USERS\XY6549JI\SOURCE\REPOS\YPFB\X64\RELEASE\YPFB.PDB
#Command: "C:\Program Files (x86)\Microsoft Visual Studio\2019\Community\VC\Tools\MSVC\14.22.27905\bin\HostX86\x64\link.exe" /ERRORREPORT:PROMPT @C:\Users\xy6549ji\AppData\Local\Temp\tmpb386008e7c1d4809a1689ff8bc0c402e.rsp
^C:\USERS\XY6549JI\SOURCE\REPOS\YPFB\YPFB\X64\RELEASE\DETAIL.OBJ|C:\USERS\XY6549JI\SOURCE\REPOS\YPFB\YPFB\X64\RELEASE\DETAIL_CONFIRM.OBJ|C:\USERS\XY6549JI\SOURCE\REPOS\YPFB\YPFB\X64\RELEASE\DETAIL_SUMMARY.OBJ|C:\USERS\XY6549JI\SOURCE\REPOS\YPFB\YPFB\X64\RELEASE\DO_CLICK.OBJ|C:\USERS\XY6549JI\SOURCE\REPOS\YPFB\YPFB\X64\RELEASE\END.OBJ|C:\USERS\XY6549JI\SOURCE\REPOS\YPFB\YPFB\X64\RELEASE\FIND.OBJ|C:\USERS\XY6549JI\SOURCE\REPOS\YPFB\YPFB\X64\RELEASE\FOUND.OBJ|C:\USERS\XY6549JI\SOURCE\REPOS\YPFB\YPFB\X64\RELEASE\HOME.OBJ|C:\USERS\XY6549JI\SOURCE\REPOS\YPFB\YPFB\X64\RELEASE\INSERT_TEXT.OBJ|C:\USERS\XY6549JI\SOURCE\REPOS\YPFB\YPFB\X64\RELEASE\LOGIN.OBJ|C:\USERS\XY6549JI\SOURCE\REPOS\YPFB\YPFB\X64\RELEASE\SLEEP.OBJ|C:\USERS\XY6549JI\SOURCE\REPOS\YPFB\YPFB\X64\RELEASE\YPFB.OBJ|C:\USERS\XY6549JI\SOURCE\REPOS\YPFB\YPFB\X64\RELEASE\YPFB_ICON.RES
C:\USERS\XY6549JI\SOURCE\REPOS\YPFB\X64\RELEASE\YPFB.PDB
#Command: "C:\Program Files (x86)\Microsoft Visual Studio\2019\Community\VC\Tools\MSVC\14.22.27905\bin\HostX86\x64\link.exe" /ERRORREPORT:PROMPT @C:\Users\xy6549ji\AppData\Local\Temp\tmpdfd573c087954431b3abdcc548029798.rsp
^C:\USERS\XY6549JI\SOURCE\REPOS\YPFB\YPFB\X64\RELEASE\DETAIL.OBJ|C:\USERS\XY6549JI\SOURCE\REPOS\YPFB\YPFB\X64\RELEASE\DETAIL_CONFIRM.OBJ|C:\USERS\XY6549JI\SOURCE\REPOS\YPFB\YPFB\X64\RELEASE\DETAIL_SUMMARY.OBJ|C:\USERS\XY6549JI\SOURCE\REPOS\YPFB\YPFB\X64\RELEASE\DO_CLICK.OBJ|C:\USERS\XY6549JI\SOURCE\REPOS\YPFB\YPFB\X64\RELEASE\END.OBJ|C:\USERS\XY6549JI\SOURCE\REPOS\YPFB\YPFB\X64\RELEASE\FIND.OBJ|C:\USERS\XY6549JI\SOURCE\REPOS\YPFB\YPFB\X64\RELEASE\FOUND.OBJ|C:\USERS\XY6549JI\SOURCE\REPOS\YPFB\YPFB\X64\RELEASE\HOME.OBJ|C:\USERS\XY6549JI\SOURCE\REPOS\YPFB\YPFB\X64\RELEASE\INSERT_TEXT.OBJ|C:\USERS\XY6549JI\SOURCE\REPOS\YPFB\YPFB\X64\RELEASE\LOGIN.OBJ|C:\USERS\XY6549JI\SOURCE\REPOS\YPFB\YPFB\X64\RELEASE\SLEEP.OBJ|C:\USERS\XY6549JI\SOURCE\REPOS\YPFB\YPFB\X64\RELEASE\YPFB.OBJ|C:\USERS\XY6549JI\SOURCE\REPOS\YPFB\YPFB\X64\RELEASE\YPFB_ICON.RES
C:\USERS\XY6549JI\SOURCE\REPOS\YPFB\X64\RELEASE\YPFB.PDB
#Command: "C:\Program Files (x86)\Microsoft Visual Studio\2019\Community\VC\Tools\MSVC\14.22.27905\bin\HostX86\x64\link.exe" /ERRORREPORT:PROMPT @C:\Users\xy6549ji\AppData\Local\Temp\tmpccb9a19d20bd49a0a0db1acd4e298a56.rsp
^C:\USERS\XY6549JI\SOURCE\REPOS\YPFB\YPFB\X64\RELEASE\DETAIL.OBJ|C:\USERS\XY6549JI\SOURCE\REPOS\YPFB\YPFB\X64\RELEASE\DETAIL_CONFIRM.OBJ|C:\USERS\XY6549JI\SOURCE\REPOS\YPFB\YPFB\X64\RELEASE\DETAIL_SUMMARY.OBJ|C:\USERS\XY6549JI\SOURCE\REPOS\YPFB\YPFB\X64\RELEASE\DO_CLICK.OBJ|C:\USERS\XY6549JI\SOURCE\REPOS\YPFB\YPFB\X64\RELEASE\END.OBJ|C:\USERS\XY6549JI\SOURCE\REPOS\YPFB\YPFB\X64\RELEASE\FIND.OBJ|C:\USERS\XY6549JI\SOURCE\REPOS\YPFB\YPFB\X64\RELEASE\FOUND.OBJ|C:\USERS\XY6549JI\SOURCE\REPOS\YPFB\YPFB\X64\RELEASE\HOME.OBJ|C:\USERS\XY6549JI\SOURCE\REPOS\YPFB\YPFB\X64\RELEASE\INSERT_TEXT.OBJ|C:\USERS\XY6549JI\SOURCE\REPOS\YPFB\YPFB\X64\RELEASE\LOGIN.OBJ|C:\USERS\XY6549JI\SOURCE\REPOS\YPFB\YPFB\X64\RELEASE\SLEEP.OBJ|C:\USERS\XY6549JI\SOURCE\REPOS\YPFB\YPFB\X64\RELEASE\YPFB.OBJ|C:\USERS\XY6549JI\SOURCE\REPOS\YPFB\YPFB\X64\RELEASE\YPFB_ICON.RES
C:\USERS\XY6549JI\SOURCE\REPOS\YPFB\X64\RELEASE\YPFB.PDB
#Command: "C:\Program Files (x86)\Microsoft Visual Studio\2019\Community\VC\Tools\MSVC\14.22.27905\bin\HostX86\x64\link.exe" /ERRORREPORT:PROMPT @C:\Users\xy6549ji\AppData\Local\Temp\tmp0e7cd1d23d7047b49d5eb28b48bb196a.rsp
^C:\USERS\XY6549JI\SOURCE\REPOS\YPFB\YPFB\X64\RELEASE\DETAIL.OBJ|C:\USERS\XY6549JI\SOURCE\REPOS\YPFB\YPFB\X64\RELEASE\DETAIL_CONFIRM.OBJ|C:\USERS\XY6549JI\SOURCE\REPOS\YPFB\YPFB\X64\RELEASE\DETAIL_SUMMARY.OBJ|C:\USERS\XY6549JI\SOURCE\REPOS\YPFB\YPFB\X64\RELEASE\DO_CLICK.OBJ|C:\USERS\XY6549JI\SOURCE\REPOS\YPFB\YPFB\X64\RELEASE\END.OBJ|C:\USERS\XY6549JI\SOURCE\REPOS\YPFB\YPFB\X64\RELEASE\FIND.OBJ|C:\USERS\XY6549JI\SOURCE\REPOS\YPFB\YPFB\X64\RELEASE\FOUND.OBJ|C:\USERS\XY6549JI\SOURCE\REPOS\YPFB\YPFB\X64\RELEASE\HOME.OBJ|C:\USERS\XY6549JI\SOURCE\REPOS\YPFB\YPFB\X64\RELEASE\INSERT_TEXT.OBJ|C:\USERS\XY6549JI\SOURCE\REPOS\YPFB\YPFB\X64\RELEASE\LOGIN.OBJ|C:\USERS\XY6549JI\SOURCE\REPOS\YPFB\YPFB\X64\RELEASE\SLEEP.OBJ|C:\USERS\XY6549JI\SOURCE\REPOS\YPFB\YPFB\X64\RELEASE\YPFB.OBJ|C:\USERS\XY6549JI\SOURCE\REPOS\YPFB\YPFB\X64\RELEASE\YPFB_ICON.RES
C:\USERS\XY6549JI\SOURCE\REPOS\YPFB\X64\RELEASE\YPFB.PDB
#Command: "C:\Program Files (x86)\Microsoft Visual Studio\2019\Community\VC\Tools\MSVC\14.22.27905\bin\HostX86\x64\link.exe" /ERRORREPORT:PROMPT @C:\Users\xy6549ji\AppData\Local\Temp\tmpcf5d79e9d62449af9665f07b0d579429.rsp
^C:\USERS\XY6549JI\SOURCE\REPOS\YPFB\YPFB\X64\RELEASE\DETAIL.OBJ|C:\USERS\XY6549JI\SOURCE\REPOS\YPFB\YPFB\X64\RELEASE\DETAIL_CONFIRM.OBJ|C:\USERS\XY6549JI\SOURCE\REPOS\YPFB\YPFB\X64\RELEASE\DETAIL_SUMMARY.OBJ|C:\USERS\XY6549JI\SOURCE\REPOS\YPFB\YPFB\X64\RELEASE\DO_CLICK.OBJ|C:\USERS\XY6549JI\SOURCE\REPOS\YPFB\YPFB\X64\RELEASE\END.OBJ|C:\USERS\XY6549JI\SOURCE\REPOS\YPFB\YPFB\X64\RELEASE\FIND.OBJ|C:\USERS\XY6549JI\SOURCE\REPOS\YPFB\YPFB\X64\RELEASE\FOUND.OBJ|C:\USERS\XY6549JI\SOURCE\REPOS\YPFB\YPFB\X64\RELEASE\HOME.OBJ|C:\USERS\XY6549JI\SOURCE\REPOS\YPFB\YPFB\X64\RELEASE\INSERT_TEXT.OBJ|C:\USERS\XY6549JI\SOURCE\REPOS\YPFB\YPFB\X64\RELEASE\LOGIN.OBJ|C:\USERS\XY6549JI\SOURCE\REPOS\YPFB\YPFB\X64\RELEASE\SLEEP.OBJ|C:\USERS\XY6549JI\SOURCE\REPOS\YPFB\YPFB\X64\RELEASE\YPFB.OBJ|C:\USERS\XY6549JI\SOURCE\REPOS\YPFB\YPFB\X64\RELEASE\YPFB_ICON.RES
C:\USERS\XY6549JI\SOURCE\REPOS\YPFB\X64\RELEASE\YPFB.PDB
#Command: "C:\Program Files (x86)\Microsoft Visual Studio\2019\Community\VC\Tools\MSVC\14.22.27905\bin\HostX86\x64\link.exe" /ERRORREPORT:PROMPT @C:\Users\xy6549ji\AppData\Local\Temp\tmpf357c8b8f5a447d8941d746e7d05e605.rsp
^C:\USERS\XY6549JI\SOURCE\REPOS\YPFB\YPFB\X64\RELEASE\DETAIL.OBJ|C:\USERS\XY6549JI\SOURCE\REPOS\YPFB\YPFB\X64\RELEASE\DETAIL_CONFIRM.OBJ|C:\USERS\XY6549JI\SOURCE\REPOS\YPFB\YPFB\X64\RELEASE\DETAIL_SUMMARY.OBJ|C:\USERS\XY6549JI\SOURCE\REPOS\YPFB\YPFB\X64\RELEASE\DO_CLICK.OBJ|C:\USERS\XY6549JI\SOURCE\REPOS\YPFB\YPFB\X64\RELEASE\END.OBJ|C:\USERS\XY6549JI\SOURCE\REPOS\YPFB\YPFB\X64\RELEASE\FIND.OBJ|C:\USERS\XY6549JI\SOURCE\REPOS\YPFB\YPFB\X64\RELEASE\FOUND.OBJ|C:\USERS\XY6549JI\SOURCE\REPOS\YPFB\YPFB\X64\RELEASE\HOME.OBJ|C:\USERS\XY6549JI\SOURCE\REPOS\YPFB\YPFB\X64\RELEASE\INSERT_TEXT.OBJ|C:\USERS\XY6549JI\SOURCE\REPOS\YPFB\YPFB\X64\RELEASE\LOGIN.OBJ|C:\USERS\XY6549JI\SOURCE\REPOS\YPFB\YPFB\X64\RELEASE\SLEEP.OBJ|C:\USERS\XY6549JI\SOURCE\REPOS\YPFB\YPFB\X64\RELEASE\YPFB.OBJ|C:\USERS\XY6549JI\SOURCE\REPOS\YPFB\YPFB\X64\RELEASE\YPFB_ICON.RES
C:\USERS\XY6549JI\SOURCE\REPOS\YPFB\X64\RELEASE\YPFB.PDB
#Command: "C:\Program Files (x86)\Microsoft Visual Studio\2019\Community\VC\Tools\MSVC\14.22.27905\bin\HostX86\x64\link.exe" /ERRORREPORT:PROMPT @C:\Users\xy6549ji\AppData\Local\Temp\tmpd466c32000be48afbf7f0132cbe854ec.rsp
^C:\USERS\XY6549JI\SOURCE\REPOS\YPFB\YPFB\X64\RELEASE\DETAIL.OBJ|C:\USERS\XY6549JI\SOURCE\REPOS\YPFB\YPFB\X64\RELEASE\DETAIL_CONFIRM.OBJ|C:\USERS\XY6549JI\SOURCE\REPOS\YPFB\YPFB\X64\RELEASE\DETAIL_SUMMARY.OBJ|C:\USERS\XY6549JI\SOURCE\REPOS\YPFB\YPFB\X64\RELEASE\DO_CLICK.OBJ|C:\USERS\XY6549JI\SOURCE\REPOS\YPFB\YPFB\X64\RELEASE\END.OBJ|C:\USERS\XY6549JI\SOURCE\REPOS\YPFB\YPFB\X64\RELEASE\FIND.OBJ|C:\USERS\XY6549JI\SOURCE\REPOS\YPFB\YPFB\X64\RELEASE\FOUND.OBJ|C:\USERS\XY6549JI\SOURCE\REPOS\YPFB\YPFB\X64\RELEASE\HOME.OBJ|C:\USERS\XY6549JI\SOURCE\REPOS\YPFB\YPFB\X64\RELEASE\INSERT_TEXT.OBJ|C:\USERS\XY6549JI\SOURCE\REPOS\YPFB\YPFB\X64\RELEASE\LOGIN.OBJ|C:\USERS\XY6549JI\SOURCE\REPOS\YPFB\YPFB\X64\RELEASE\SLEEP.OBJ|C:\USERS\XY6549JI\SOURCE\REPOS\YPFB\YPFB\X64\RELEASE\YPFB.OBJ|C:\USERS\XY6549JI\SOURCE\REPOS\YPFB\YPFB\X64\RELEASE\YPFB_ICON.RES
C:\USERS\XY6549JI\SOURCE\REPOS\YPFB\X64\RELEASE\YPFB.PDB
#Command: "C:\Program Files (x86)\Microsoft Visual Studio\2019\Community\VC\Tools\MSVC\14.22.27905\bin\HostX86\x64\link.exe" /ERRORREPORT:PROMPT @C:\Users\xy6549ji\AppData\Local\Temp\tmpceea419616304397b255e5baf3725e0c.rsp
^C:\USERS\XY6549JI\SOURCE\REPOS\YPFB\YPFB\X64\RELEASE\DETAIL.OBJ|C:\USERS\XY6549JI\SOURCE\REPOS\YPFB\YPFB\X64\RELEASE\DETAIL_CONFIRM.OBJ|C:\USERS\XY6549JI\SOURCE\REPOS\YPFB\YPFB\X64\RELEASE\DETAIL_SUMMARY.OBJ|C:\USERS\XY6549JI\SOURCE\REPOS\YPFB\YPFB\X64\RELEASE\DO_CLICK.OBJ|C:\USERS\XY6549JI\SOURCE\REPOS\YPFB\YPFB\X64\RELEASE\END.OBJ|C:\USERS\XY6549JI\SOURCE\REPOS\YPFB\YPFB\X64\RELEASE\FIND.OBJ|C:\USERS\XY6549JI\SOURCE\REPOS\YPFB\YPFB\X64\RELEASE\FOUND.OBJ|C:\USERS\XY6549JI\SOURCE\REPOS\YPFB\YPFB\X64\RELEASE\HOME.OBJ|C:\USERS\XY6549JI\SOURCE\REPOS\YPFB\YPFB\X64\RELEASE\INSERT_TEXT.OBJ|C:\USERS\XY6549JI\SOURCE\REPOS\YPFB\YPFB\X64\RELEASE\LOGIN.OBJ|C:\USERS\XY6549JI\SOURCE\REPOS\YPFB\YPFB\X64\RELEASE\SLEEP.OBJ|C:\USERS\XY6549JI\SOURCE\REPOS\YPFB\YPFB\X64\RELEASE\YPFB.OBJ|C:\USERS\XY6549JI\SOURCE\REPOS\YPFB\YPFB\X64\RELEASE\YPFB_ICON.RES
C:\USERS\XY6549JI\SOURCE\REPOS\YPFB\X64\RELEASE\YPFB.PDB
#Command: "C:\Program Files (x86)\Microsoft Visual Studio\2019\Community\VC\Tools\MSVC\14.22.27905\bin\HostX86\x64\link.exe" /ERRORREPORT:PROMPT @C:\Users\xy6549ji\AppData\Local\Temp\tmp60002d3ca23747958fb393bde33ce5ad.rsp
^C:\USERS\XY6549JI\SOURCE\REPOS\YPFB\YPFB\X64\RELEASE\DETAIL.OBJ|C:\USERS\XY6549JI\SOURCE\REPOS\YPFB\YPFB\X64\RELEASE\DETAIL_CONFIRM.OBJ|C:\USERS\XY6549JI\SOURCE\REPOS\YPFB\YPFB\X64\RELEASE\DETAIL_SUMMARY.OBJ|C:\USERS\XY6549JI\SOURCE\REPOS\YPFB\YPFB\X64\RELEASE\DO_CLICK.OBJ|C:\USERS\XY6549JI\SOURCE\REPOS\YPFB\YPFB\X64\RELEASE\END.OBJ|C:\USERS\XY6549JI\SOURCE\REPOS\YPFB\YPFB\X64\RELEASE\FIND.OBJ|C:\USERS\XY6549JI\SOURCE\REPOS\YPFB\YPFB\X64\RELEASE\FOUND.OBJ|C:\USERS\XY6549JI\SOURCE\REPOS\YPFB\YPFB\X64\RELEASE\HOME.OBJ|C:\USERS\XY6549JI\SOURCE\REPOS\YPFB\YPFB\X64\RELEASE\INSERT_TEXT.OBJ|C:\USERS\XY6549JI\SOURCE\REPOS\YPFB\YPFB\X64\RELEASE\LOGIN.OBJ|C:\USERS\XY6549JI\SOURCE\REPOS\YPFB\YPFB\X64\RELEASE\SLEEP.OBJ|C:\USERS\XY6549JI\SOURCE\REPOS\YPFB\YPFB\X64\RELEASE\YPFB.OBJ|C:\USERS\XY6549JI\SOURCE\REPOS\YPFB\YPFB\X64\RELEASE\YPFB_ICON.RES
C:\USERS\XY6549JI\SOURCE\REPOS\YPFB\X64\RELEASE\YPFB.PDB
#Command: "C:\Program Files (x86)\Microsoft Visual Studio\2019\Community\VC\Tools\MSVC\14.22.27905\bin\HostX86\x64\link.exe" /ERRORREPORT:PROMPT @C:\Users\xy6549ji\AppData\Local\Temp\tmp4e9cef9ad88043b193fd9834955f9a0d.rsp
^C:\USERS\XY6549JI\SOURCE\REPOS\YPFB\YPFB\X64\RELEASE\DETAIL.OBJ|C:\USERS\XY6549JI\SOURCE\REPOS\YPFB\YPFB\X64\RELEASE\DETAIL_CONFIRM.OBJ|C:\USERS\XY6549JI\SOURCE\REPOS\YPFB\YPFB\X64\RELEASE\DETAIL_SUMMARY.OBJ|C:\USERS\XY6549JI\SOURCE\REPOS\YPFB\YPFB\X64\RELEASE\DO_CLICK.OBJ|C:\USERS\XY6549JI\SOURCE\REPOS\YPFB\YPFB\X64\RELEASE\END.OBJ|C:\USERS\XY6549JI\SOURCE\REPOS\YPFB\YPFB\X64\RELEASE\FIND.OBJ|C:\USERS\XY6549JI\SOURCE\REPOS\YPFB\YPFB\X64\RELEASE\FOUND.OBJ|C:\USERS\XY6549JI\SOURCE\REPOS\YPFB\YPFB\X64\RELEASE\HOME.OBJ|C:\USERS\XY6549JI\SOURCE\REPOS\YPFB\YPFB\X64\RELEASE\INSERT_TEXT.OBJ|C:\USERS\XY6549JI\SOURCE\REPOS\YPFB\YPFB\X64\RELEASE\LOGIN.OBJ|C:\USERS\XY6549JI\SOURCE\REPOS\YPFB\YPFB\X64\RELEASE\SLEEP.OBJ|C:\USERS\XY6549JI\SOURCE\REPOS\YPFB\YPFB\X64\RELEASE\YPFB.OBJ|C:\USERS\XY6549JI\SOURCE\REPOS\YPFB\YPFB\X64\RELEASE\YPFB_ICON.RES
C:\USERS\XY6549JI\SOURCE\REPOS\YPFB\X64\RELEASE\YPFB.PDB
#Command: "C:\Program Files (x86)\Microsoft Visual Studio\2019\Community\VC\Tools\MSVC\14.22.27905\bin\HostX86\x64\link.exe" /ERRORREPORT:PROMPT @C:\Users\xy6549ji\AppData\Local\Temp\tmpad977c59ee724b1e85499bef645de738.rsp
^C:\USERS\XY6549JI\SOURCE\REPOS\YPFB\YPFB\X64\RELEASE\DETAIL.OBJ|C:\USERS\XY6549JI\SOURCE\REPOS\YPFB\YPFB\X64\RELEASE\DETAIL_CONFIRM.OBJ|C:\USERS\XY6549JI\SOURCE\REPOS\YPFB\YPFB\X64\RELEASE\DETAIL_SUMMARY.OBJ|C:\USERS\XY6549JI\SOURCE\REPOS\YPFB\YPFB\X64\RELEASE\DO_CLICK.OBJ|C:\USERS\XY6549JI\SOURCE\REPOS\YPFB\YPFB\X64\RELEASE\END.OBJ|C:\USERS\XY6549JI\SOURCE\REPOS\YPFB\YPFB\X64\RELEASE\FIND.OBJ|C:\USERS\XY6549JI\SOURCE\REPOS\YPFB\YPFB\X64\RELEASE\FOUND.OBJ|C:\USERS\XY6549JI\SOURCE\REPOS\YPFB\YPFB\X64\RELEASE\HOME.OBJ|C:\USERS\XY6549JI\SOURCE\REPOS\YPFB\YPFB\X64\RELEASE\INSERT_TEXT.OBJ|C:\USERS\XY6549JI\SOURCE\REPOS\YPFB\YPFB\X64\RELEASE\LOGIN.OBJ|C:\USERS\XY6549JI\SOURCE\REPOS\YPFB\YPFB\X64\RELEASE\SLEEP.OBJ|C:\USERS\XY6549JI\SOURCE\REPOS\YPFB\YPFB\X64\RELEASE\YPFB.OBJ|C:\USERS\XY6549JI\SOURCE\REPOS\YPFB\YPFB\X64\RELEASE\YPFB_ICON.RES
C:\USERS\XY6549JI\SOURCE\REPOS\YPFB\X64\RELEASE\YPFB.PDB
#Command: "C:\Program Files (x86)\Microsoft Visual Studio\2019\Community\VC\Tools\MSVC\14.22.27905\bin\HostX86\x64\link.exe" /ERRORREPORT:PROMPT @C:\Users\xy6549ji\AppData\Local\Temp\tmpa7aa4ef5595444f0afbd21d8b1c530b2.rsp
^C:\USERS\XY6549JI\SOURCE\REPOS\YPFB\YPFB\X64\RELEASE\DETAIL.OBJ|C:\USERS\XY6549JI\SOURCE\REPOS\YPFB\YPFB\X64\RELEASE\DETAIL_CONFIRM.OBJ|C:\USERS\XY6549JI\SOURCE\REPOS\YPFB\YPFB\X64\RELEASE\DETAIL_SUMMARY.OBJ|C:\USERS\XY6549JI\SOURCE\REPOS\YPFB\YPFB\X64\RELEASE\DO_CLICK.OBJ|C:\USERS\XY6549JI\SOURCE\REPOS\YPFB\YPFB\X64\RELEASE\END.OBJ|C:\USERS\XY6549JI\SOURCE\REPOS\YPFB\YPFB\X64\RELEASE\FIND.OBJ|C:\USERS\XY6549JI\SOURCE\REPOS\YPFB\YPFB\X64\RELEASE\FOUND.OBJ|C:\USERS\XY6549JI\SOURCE\REPOS\YPFB\YPFB\X64\RELEASE\HOME.OBJ|C:\USERS\XY6549JI\SOURCE\REPOS\YPFB\YPFB\X64\RELEASE\INSERT_TEXT.OBJ|C:\USERS\XY6549JI\SOURCE\REPOS\YPFB\YPFB\X64\RELEASE\LOGIN.OBJ|C:\USERS\XY6549JI\SOURCE\REPOS\YPFB\YPFB\X64\RELEASE\SLEEP.OBJ|C:\USERS\XY6549JI\SOURCE\REPOS\YPFB\YPFB\X64\RELEASE\YPFB.OBJ|C:\USERS\XY6549JI\SOURCE\REPOS\YPFB\YPFB\X64\RELEASE\YPFB_ICON.RES
C:\USERS\XY6549JI\SOURCE\REPOS\YPFB\X64\RELEASE\YPFB.PDB
#Command: "C:\Program Files (x86)\Microsoft Visual Studio\2019\Community\VC\Tools\MSVC\14.22.27905\bin\HostX86\x64\link.exe" /ERRORREPORT:PROMPT @C:\Users\xy6549ji\AppData\Local\Temp\tmpb8c660400c1c45cf98b3d949fa2f04ba.rsp
^C:\USERS\XY6549JI\SOURCE\REPOS\YPFB\YPFB\X64\RELEASE\DETAIL.OBJ|C:\USERS\XY6549JI\SOURCE\REPOS\YPFB\YPFB\X64\RELEASE\DETAIL_CONFIRM.OBJ|C:\USERS\XY6549JI\SOURCE\REPOS\YPFB\YPFB\X64\RELEASE\DETAIL_SUMMARY.OBJ|C:\USERS\XY6549JI\SOURCE\REPOS\YPFB\YPFB\X64\RELEASE\DO_CLICK.OBJ|C:\USERS\XY6549JI\SOURCE\REPOS\YPFB\YPFB\X64\RELEASE\END.OBJ|C:\USERS\XY6549JI\SOURCE\REPOS\YPFB\YPFB\X64\RELEASE\FIND.OBJ|C:\USERS\XY6549JI\SOURCE\REPOS\YPFB\YPFB\X64\RELEASE\FOUND.OBJ|C:\USERS\XY6549JI\SOURCE\REPOS\YPFB\YPFB\X64\RELEASE\HOME.OBJ|C:\USERS\XY6549JI\SOURCE\REPOS\YPFB\YPFB\X64\RELEASE\INSERT_TEXT.OBJ|C:\USERS\XY6549JI\SOURCE\REPOS\YPFB\YPFB\X64\RELEASE\LOGIN.OBJ|C:\USERS\XY6549JI\SOURCE\REPOS\YPFB\YPFB\X64\RELEASE\SLEEP.OBJ|C:\USERS\XY6549JI\SOURCE\REPOS\YPFB\YPFB\X64\RELEASE\YPFB.OBJ|C:\USERS\XY6549JI\SOURCE\REPOS\YPFB\YPFB\X64\RELEASE\YPFB_ICON.RES
C:\USERS\XY6549JI\SOURCE\REPOS\YPFB\X64\RELEASE\YPFB.PDB
#Command: "C:\Program Files (x86)\Microsoft Visual Studio\2019\Community\VC\Tools\MSVC\14.22.27905\bin\HostX86\x64\link.exe" /ERRORREPORT:PROMPT @C:\Users\xy6549ji\AppData\Local\Temp\tmp3d7672edc24b4a9481508c06f614b8e2.rsp
^C:\USERS\XY6549JI\SOURCE\REPOS\YPFB\YPFB\X64\RELEASE\DETAIL.OBJ|C:\USERS\XY6549JI\SOURCE\REPOS\YPFB\YPFB\X64\RELEASE\DETAIL_CONFIRM.OBJ|C:\USERS\XY6549JI\SOURCE\REPOS\YPFB\YPFB\X64\RELEASE\DETAIL_SUMMARY.OBJ|C:\USERS\XY6549JI\SOURCE\REPOS\YPFB\YPFB\X64\RELEASE\DO_CLICK.OBJ|C:\USERS\XY6549JI\SOURCE\REPOS\YPFB\YPFB\X64\RELEASE\END.OBJ|C:\USERS\XY6549JI\SOURCE\REPOS\YPFB\YPFB\X64\RELEASE\FIND.OBJ|C:\USERS\XY6549JI\SOURCE\REPOS\YPFB\YPFB\X64\RELEASE\FOUND.OBJ|C:\USERS\XY6549JI\SOURCE\REPOS\YPFB\YPFB\X64\RELEASE\HOME.OBJ|C:\USERS\XY6549JI\SOURCE\REPOS\YPFB\YPFB\X64\RELEASE\INSERT_TEXT.OBJ|C:\USERS\XY6549JI\SOURCE\REPOS\YPFB\YPFB\X64\RELEASE\LOGIN.OBJ|C:\USERS\XY6549JI\SOURCE\REPOS\YPFB\YPFB\X64\RELEASE\SLEEP.OBJ|C:\USERS\XY6549JI\SOURCE\REPOS\YPFB\YPFB\X64\RELEASE\YPFB.OBJ|C:\USERS\XY6549JI\SOURCE\REPOS\YPFB\YPFB\X64\RELEASE\YPFB_ICON.RES
C:\USERS\XY6549JI\SOURCE\REPOS\YPFB\X64\RELEASE\YPFB.PDB
#Command: "C:\Program Files (x86)\Microsoft Visual Studio\2019\Community\VC\Tools\MSVC\14.22.27905\bin\HostX86\x64\link.exe" /ERRORREPORT:PROMPT @C:\Users\xy6549ji\AppData\Local\Temp\tmp06f6a246f25946ad9d11f898ff84cd71.rsp
^C:\USERS\XY6549JI\SOURCE\REPOS\YPFB\YPFB\X64\RELEASE\DETAIL.OBJ|C:\USERS\XY6549JI\SOURCE\REPOS\YPFB\YPFB\X64\RELEASE\DETAIL_CONFIRM.OBJ|C:\USERS\XY6549JI\SOURCE\REPOS\YPFB\YPFB\X64\RELEASE\DETAIL_SUMMARY.OBJ|C:\USERS\XY6549JI\SOURCE\REPOS\YPFB\YPFB\X64\RELEASE\DO_CLICK.OBJ|C:\USERS\XY6549JI\SOURCE\REPOS\YPFB\YPFB\X64\RELEASE\END.OBJ|C:\USERS\XY6549JI\SOURCE\REPOS\YPFB\YPFB\X64\RELEASE\FIND.OBJ|C:\USERS\XY6549JI\SOURCE\REPOS\YPFB\YPFB\X64\RELEASE\FOUND.OBJ|C:\USERS\XY6549JI\SOURCE\REPOS\YPFB\YPFB\X64\RELEASE\HOME.OBJ|C:\USERS\XY6549JI\SOURCE\REPOS\YPFB\YPFB\X64\RELEASE\INSERT_TEXT.OBJ|C:\USERS\XY6549JI\SOURCE\REPOS\YPFB\YPFB\X64\RELEASE\LOGIN.OBJ|C:\USERS\XY6549JI\SOURCE\REPOS\YPFB\YPFB\X64\RELEASE\SLEEP.OBJ|C:\USERS\XY6549JI\SOURCE\REPOS\YPFB\YPFB\X64\RELEASE\YPFB.OBJ|C:\USERS\XY6549JI\SOURCE\REPOS\YPFB\YPFB\X64\RELEASE\YPFB_ICON.RES
C:\USERS\XY6549JI\SOURCE\REPOS\YPFB\X64\RELEASE\YPFB.PDB
#Command: "C:\Program Files (x86)\Microsoft Visual Studio\2019\Community\VC\Tools\MSVC\14.22.27905\bin\HostX86\x64\link.exe" /ERRORREPORT:PROMPT @C:\Users\xy6549ji\AppData\Local\Temp\tmpd3d970f0bff44be79aa80a4973c8102f.rsp
^C:\USERS\XY6549JI\SOURCE\REPOS\YPFB\YPFB\X64\RELEASE\DETAIL.OBJ|C:\USERS\XY6549JI\SOURCE\REPOS\YPFB\YPFB\X64\RELEASE\DETAIL_CONFIRM.OBJ|C:\USERS\XY6549JI\SOURCE\REPOS\YPFB\YPFB\X64\RELEASE\DETAIL_SUMMARY.OBJ|C:\USERS\XY6549JI\SOURCE\REPOS\YPFB\YPFB\X64\RELEASE\DO_CLICK.OBJ|C:\USERS\XY6549JI\SOURCE\REPOS\YPFB\YPFB\X64\RELEASE\END.OBJ|C:\USERS\XY6549JI\SOURCE\REPOS\YPFB\YPFB\X64\RELEASE\FIND.OBJ|C:\USERS\XY6549JI\SOURCE\REPOS\YPFB\YPFB\X64\RELEASE\FOUND.OBJ|C:\USERS\XY6549JI\SOURCE\REPOS\YPFB\YPFB\X64\RELEASE\HOME.OBJ|C:\USERS\XY6549JI\SOURCE\REPOS\YPFB\YPFB\X64\RELEASE\INSERT_TEXT.OBJ|C:\USERS\XY6549JI\SOURCE\REPOS\YPFB\YPFB\X64\RELEASE\LOGIN.OBJ|C:\USERS\XY6549JI\SOURCE\REPOS\YPFB\YPFB\X64\RELEASE\SLEEP.OBJ|C:\USERS\XY6549JI\SOURCE\REPOS\YPFB\YPFB\X64\RELEASE\YPFB.OBJ|C:\USERS\XY6549JI\SOURCE\REPOS\YPFB\YPFB\X64\RELEASE\YPFB_ICON.RES
C:\USERS\XY6549JI\SOURCE\REPOS\YPFB\X64\RELEASE\YPFB.PDB
#Command: "C:\Program Files (x86)\Microsoft Visual Studio\2019\Community\VC\Tools\MSVC\14.22.27905\bin\HostX86\x64\link.exe" /ERRORREPORT:PROMPT @C:\Users\xy6549ji\AppData\Local\Temp\tmp13b3f6ece6104eba9fc7bdcc269601d0.rsp
^C:\USERS\XY6549JI\SOURCE\REPOS\YPFB\YPFB\X64\RELEASE\DETAIL.OBJ|C:\USERS\XY6549JI\SOURCE\REPOS\YPFB\YPFB\X64\RELEASE\DETAIL_CONFIRM.OBJ|C:\USERS\XY6549JI\SOURCE\REPOS\YPFB\YPFB\X64\RELEASE\DETAIL_SUMMARY.OBJ|C:\USERS\XY6549JI\SOURCE\REPOS\YPFB\YPFB\X64\RELEASE\DO_CLICK.OBJ|C:\USERS\XY6549JI\SOURCE\REPOS\YPFB\YPFB\X64\RELEASE\END.OBJ|C:\USERS\XY6549JI\SOURCE\REPOS\YPFB\YPFB\X64\RELEASE\FIND.OBJ|C:\USERS\XY6549JI\SOURCE\REPOS\YPFB\YPFB\X64\RELEASE\FOUND.OBJ|C:\USERS\XY6549JI\SOURCE\REPOS\YPFB\YPFB\X64\RELEASE\HOME.OBJ|C:\USERS\XY6549JI\SOURCE\REPOS\YPFB\YPFB\X64\RELEASE\INSERT_TEXT.OBJ|C:\USERS\XY6549JI\SOURCE\REPOS\YPFB\YPFB\X64\RELEASE\LOGIN.OBJ|C:\USERS\XY6549JI\SOURCE\REPOS\YPFB\YPFB\X64\RELEASE\SLEEP.OBJ|C:\USERS\XY6549JI\SOURCE\REPOS\YPFB\YPFB\X64\RELEASE\YPFB.OBJ|C:\USERS\XY6549JI\SOURCE\REPOS\YPFB\YPFB\X64\RELEASE\YPFB_ICON.RES
C:\USERS\XY6549JI\SOURCE\REPOS\YPFB\X64\RELEASE\YPFB.PDB
